fpga/usrp2/autoc/autoc_delay_mult.vcd
$date
	Fri Mar 22 11:15:54 2013
$end
$version
	Icarus Verilog
$end
$timescale
	1s
$end
$scope module autoc_delay_mult_tb $end
$var reg 1 ! clk $end
$var reg 16 " fake_data [15:0] $end
$scope module ac $end
$var wire 1 # clk $end
$var wire 1 $ delay_line_enabled $end
$var wire 32 % delay_mult_out [31:0] $end
$var wire 16 & delayed_sample [15:0] $end
$var wire 36 ' mult_out [35:0] $end
$var wire 16 ( sample_in [15:0] $end
$var wire 16 ) sample_in_delay [15:0] $end
$var wire 1 * strobe $end
$var reg 1 + mult_strobe $end
$scope function pad $end
$var reg 16 , n [15:0] $end
$var reg 18 - pad [17:0] $end
$upscope $end
$scope module delay $end
$var wire 1 # clk $end
$var wire 16 . din [15:0] $end
$var wire 32 / rd_ptr [31:0] $end
$var reg 16 0 dout [15:0] $end
$var integer 32 1 k [31:0] $end
$var reg 1 2 outputting $end
$var integer 32 3 wr_ptr [31:0] $end
$upscope $end
$scope module ii_mult $end
$var wire 18 4 A [17:0] $end
$var wire 18 5 B [17:0] $end
$var wire 1 # C $end
$var wire 1 $ CE $end
$var wire 1 6 R $end
$var reg 36 7 P [35:0] $end
$upscope $end
$upscope $end
$upscope $end
$enddefinitions $end
#0
$dumpvars
bx 7
06
b10011001101110 5
bx0 4
b0 3
02
b11111 1
bx 0
b1 /
bz .
b10011001101110 -
b1001100110111 ,
x+
x*
bz )
b1001100110111 (
bx '
bx &
bx %
0$
0#
b1001100110111 "
0!
$end
#10
b10 /
b0 4
b10100001110000 5
b0 -
b0 ,
b1 3
b0 0
b0 &
0+
0*
b1010000111000 "
b1010000111000 (
1!
1#
#20
0!
0#
#30
b10101001110010 5
b10101001110010 -
b1010100111001 ,
b11 /
b1010100111001 "
b1010100111001 (
b10 3
1!
1#
#40
0!
0#
#50
b100 /
b10110001110100 5
b10110001110100 -
b1011000111010 ,
b11 3
b1011000111010 "
b1011000111010 (
1!
1#
#60
0!
0#
#70
b10111001110110 5
b10111001110110 -
b1011100111011 ,
b101 /
b1011100111011 "
b1011100111011 (
b100 3
1!
1#
#80
0!
0#
#90
b110 /
b11000001111000 5
b11000001111000 -
b1100000111100 ,
b101 3
b1100000111100 "
b1100000111100 (
1!
1#
#100
0!
0#
#110
b11001001111010 5
b11001001111010 -
b1100100111101 ,
b111 /
b1100100111101 "
b1100100111101 (
b110 3
1!
1#
#120
0!
0#
#130
b1000 /
b11010001111100 5
b11010001111100 -
b1101000111110 ,
b111 3
b1101000111110 "
b1101000111110 (
1!
1#
#140
0!
0#
#150
b11011001111110 5
b11011001111110 -
b1101100111111 ,
b1001 /
b1101100111111 "
b1101100111111 (
b1000 3
1!
1#
#160
0!
0#
#170
b1010 /
b11100010000000 5
b11100010000000 -
b1110001000000 ,
b1001 3
b1110001000000 "
b1110001000000 (
1!
1#
#180
0!
0#
#190
b11101010000010 5
b11101010000010 -
b1110101000001 ,
b1011 /
b1110101000001 "
b1110101000001 (
b1010 3
1!
1#
#200
0!
0#
#210
b1100 /
b11110010000100 5
b11110010000100 -
b1111001000010 ,
b1011 3
b1111001000010 "
b1111001000010 (
1!
1#
#220
0!
0#
#230
b11111010000110 5
b11111010000110 -
b1111101000011 ,
b1101 /
b1111101000011 "
b1111101000011 (
b1100 3
1!
1#
#240
0!
0#
#250
b1110 /
b100000010001000 5
b100000010001000 -
b10000001000100 ,
b1101 3
b10000001000100 "
b10000001000100 (
1!
1#
#260
0!
0#
#270
b100001010001010 5
b100001010001010 -
b10000101000101 ,
b1111 /
b10000101000101 "
b10000101000101 (
b1110 3
1!
1#
#280
0!
0#
#290
b10000 /
b100010010001100 5
b100010010001100 -
b10001001000110 ,
b1111 3
b10001001000110 "
b10001001000110 (
1!
1#
#300
0!
0#
#310
b100011010001110 5
b100011010001110 -
b10001101000111 ,
b10001 /
b10001101000111 "
b10001101000111 (
b10000 3
1!
1#
#320
0!
0#
#330
b10010 /
b100100010010000 5
b100100010010000 -
b10010001001000 ,
b10001 3
b10010001001000 "
b10010001001000 (
1!
1#
#340
0!
0#
#350
b100101010010010 5
b100101010010010 -
b10010101001001 ,
b10011 /
b10010101001001 "
b10010101001001 (
b10010 3
1!
1#
#360
0!
0#
#370
b10100 /
b100110010010100 5
b100110010010100 -
b10011001001010 ,
b10011 3
b10011001001010 "
b10011001001010 (
1!
1#
#380
0!
0#
#390
b100111010010110 5
b100111010010110 -
b10011101001011 ,
b10101 /
b10011101001011 "
b10011101001011 (
b10100 3
1!
1#
#400
0!
0#
#410
b10110 /
b101000010011000 5
b101000010011000 -
b10100001001100 ,
b10101 3
b10100001001100 "
b10100001001100 (
1!
1#
#420
0!
0#
#430
b101001010011010 5
b101001010011010 -
b10100101001101 ,
b10111 /
b10100101001101 "
b10100101001101 (
b10110 3
1!
1#
#440
0!
0#
#450
b11000 /
b101010010011100 5
b101010010011100 -
b10101001001110 ,
b10111 3
b10101001001110 "
b10101001001110 (
1!
1#
#460
0!
0#
#470
b101011010011110 5
b101011010011110 -
b10101101001111 ,
b11001 /
b10101101001111 "
b10101101001111 (
b11000 3
1!
1#
#480
0!
0#
#490
b11010 /
b101100010100000 5
b101100010100000 -
b10110001010000 ,
b11001 3
b10110001010000 "
b10110001010000 (
1!
1#
#500
0!
0#
#510
b101101010100010 5
b101101010100010 -
b10110101010001 ,
b11011 /
b10110101010001 "
b10110101010001 (
b11010 3
1!
1#
#520
0!
0#
#530
b11100 /
b101110010100100 5
b101110010100100 -
b10111001010010 ,
b11011 3
b10111001010010 "
b10111001010010 (
1!
1#
#540
0!
0#
#550
b101111010100110 5
b101111010100110 -
b10111101010011 ,
b11101 /
b10111101010011 "
b10111101010011 (
b11100 3
1!
1#
#560
0!
0#
#570
b11110 /
b110000010101000 5
b110000010101000 -
b11000001010100 ,
b11101 3
b11000001010100 "
b11000001010100 (
1!
1#
#580
0!
0#
#590
b110001010101010 5
b110001010101010 -
b11000101010101 ,
b11111 /
b11000101010101 "
b11000101010101 (
b11110 3
1!
1#
#600
0!
0#
#610
b0 /
bx0 4
b110010010101100 5
bx0 -
bx ,
b11111 3
bx 0
bx &
b11001001010110 "
b11001001010110 (
1!
1#
#620
0!
0#
#630
b110011010101110 5
b1 /
bz0 4
b110011010101110 -
b11001101010111 ,
b11001101010111 "
b11001101010111 (
12
1$
b0 3
bz 0
bz &
1!
1#
#640
0!
0#
#650
b10 /
b110100010110000 5
b110100010110000 -
b11010001011000 ,
b1 3
1+
1*
b11010001011000 "
b11010001011000 (
1!
1#
#660
0!
0#
#670
b110101010110010 5
b110101010110010 -
b11010101011001 ,
b11 /
b11010101011001 "
b11010101011001 (
b10 3
1!
1#
#680
0!
0#
#690
b100 /
b110110010110100 5
b110110010110100 -
b11011001011010 ,
b11 3
b11011001011010 "
b11011001011010 (
1!
1#
#700
0!
0#
#710
b110111010110110 5
b110111010110110 -
b11011101011011 ,
b101 /
b11011101011011 "
b11011101011011 (
b100 3
1!
1#
#720
0!
0#
#730
b110 /
b111000010111000 5
b111000010111000 -
b11100001011100 ,
b101 3
b11100001011100 "
b11100001011100 (
1!
1#
#740
0!
0#
#750
b111001010111010 5
b111001010111010 -
b11100101011101 ,
b111 /
b11100101011101 "
b11100101011101 (
b110 3
1!
1#
#760
0!
0#
#770
b1000 /
b111010010111100 5
b111010010111100 -
b11101001011110 ,
b111 3
b11101001011110 "
b11101001011110 (
1!
1#
#780
0!
0#
#790
b111011010111110 5
b111011010111110 -
b11101101011111 ,
b1001 /
b11101101011111 "
b11101101011111 (
b1000 3
1!
1#
#800
0!
0#
#810
b1010 /
b111100011000000 5
b111100011000000 -
b11110001100000 ,
b1001 3
b11110001100000 "
b11110001100000 (
1!
1#
#820
0!
0#
#830
b111101011000010 5
b111101011000010 -
b11110101100001 ,
b1011 /
b11110101100001 "
b11110101100001 (
b1010 3
1!
1#
#840
0!
0#
#850
b1100 /
b111110011000100 5
b111110011000100 -
b11111001100010 ,
b1011 3
b11111001100010 "
b11111001100010 (
1!
1#
#860
0!
0#
#870
b111111011000110 5
b111111011000110 -
b11111101100011 ,
b1101 /
b11111101100011 "
b11111101100011 (
b1100 3
1!
1#
#880
0!
0#
#890
b1110 /
b1000000011001000 5
b1000000011001000 -
b100000001100100 ,
b1101 3
b100000001100100 "
b100000001100100 (
1!
1#
#900
0!
0#
#910
b1000001011001010 5
b1000001011001010 -
b100000101100101 ,
b1111 /
b100000101100101 "
b100000101100101 (
b1110 3
1!
1#
#920
0!
0#
#930
b10000 /
b1000010011001100 5
b1000010011001100 -
b100001001100110 ,
b1111 3
b100001001100110 "
b100001001100110 (
1!
1#
#940
0!
0#
#950
b1000011011001110 5
b1000011011001110 -
b100001101100111 ,
b10001 /
b100001101100111 "
b100001101100111 (
b10000 3
1!
1#
#960
0!
0#
#970
b10010 /
b1000100011010000 5
b1000100011010000 -
b100010001101000 ,
b10001 3
b100010001101000 "
b100010001101000 (
1!
1#
#980
0!
0#
#990
b1000101011010010 5
b1000101011010010 -
b100010101101001 ,
b10011 /
b100010101101001 "
b100010101101001 (
b10010 3
1!
1#
#1000
0!
0#
#1010
b10100 /
b1000110011010100 5
b1000110011010100 -
b100011001101010 ,
b10011 3
b100011001101010 "
b100011001101010 (
1!
1#
#1020
0!
0#
#1030
b1000111011010110 5
b1000111011010110 -
b100011101101011 ,
b10101 /
b100011101101011 "
b100011101101011 (
b10100 3
1!
1#
#1040
0!
0#
#1050
b10110 /
b1001000011011000 5
b1001000011011000 -
b100100001101100 ,
b10101 3
b100100001101100 "
b100100001101100 (
1!
1#
#1060
0!
0#
#1070
b1001001011011010 5
b1001001011011010 -
b100100101101101 ,
b10111 /
b100100101101101 "
b100100101101101 (
b10110 3
1!
1#
#1080
0!
0#
#1090
b11000 /
b1001010011011100 5
b1001010011011100 -
b100101001101110 ,
b10111 3
b100101001101110 "
b100101001101110 (
1!
1#
#1100
0!
0#
#1110
b1001011011011110 5
b1001011011011110 -
b100101101101111 ,
b11001 /
b100101101101111 "
b100101101101111 (
b11000 3
1!
1#
#1120
0!
0#
#1130
b11010 /
b1001100011100000 5
b1001100011100000 -
b100110001110000 ,
b11001 3
b100110001110000 "
b100110001110000 (
1!
1#
#1140
0!
0#
#1150
b1001101011100010 5
b1001101011100010 -
b100110101110001 ,
b11011 /
b100110101110001 "
b100110101110001 (
b11010 3
1!
1#
#1160
0!
0#
#1170
b11100 /
b1001110011100100 5
b1001110011100100 -
b100111001110010 ,
b11011 3
b100111001110010 "
b100111001110010 (
1!
1#
#1180
0!
0#
#1190
b1001111011100110 5
b1001111011100110 -
b100111101110011 ,
b11101 /
b100111101110011 "
b100111101110011 (
b11100 3
1!
1#
#1200
0!
0#
#1210
b11110 /
b1010000011101000 5
b1010000011101000 -
b101000001110100 ,
b11101 3
b101000001110100 "
b101000001110100 (
1!
1#
#1220
0!
0#
#1230
b1010001011101010 5
b1010001011101010 -
b101000101110101 ,
b11111 /
b101000101110101 "
b101000101110101 (
b11110 3
1!
1#
#1240
0!
0#
#1250
b0 /
b1010010011101100 5
b1010010011101100 -
b101001001110110 ,
b11111 3
b101001001110110 "
b101001001110110 (
1!
1#
#1260
0!
0#
#1270
b1010011011101110 5
b1010011011101110 -
b101001101110111 ,
b1 /
b101001101110111 "
b101001101110111 (
b0 3
1!
1#
#1280
0!
0#
#1290
b10 /
b1010100011110000 5
b1010100011110000 -
b101010001111000 ,
b1 3
b101010001111000 "
b101010001111000 (
1!
1#
#1300
0!
0#
#1310
b1010101011110010 5
b1010101011110010 -
b101010101111001 ,
b11 /
b101010101111001 "
b101010101111001 (
b10 3
1!
1#
#1320
0!
0#
#1330
b100 /
b1010110011110100 5
b1010110011110100 -
b101011001111010 ,
b11 3
b101011001111010 "
b101011001111010 (
1!
1#
#1340
0!
0#
#1350
b1010111011110110 5
b1010111011110110 -
b101011101111011 ,
b101 /
b101011101111011 "
b101011101111011 (
b100 3
1!
1#
#1360
0!
0#
#1370
b110 /
b1011000011111000 5
b1011000011111000 -
b101100001111100 ,
b101 3
b101100001111100 "
b101100001111100 (
1!
1#
#1380
0!
0#
#1390
b1011001011111010 5
b1011001011111010 -
b101100101111101 ,
b111 /
b101100101111101 "
b101100101111101 (
b110 3
1!
1#
#1400
0!
0#
#1410
b1000 /
b1011010011111100 5
b1011010011111100 -
b101101001111110 ,
b111 3
b101101001111110 "
b101101001111110 (
1!
1#
#1420
0!
0#
#1430
b1011011011111110 5
b1011011011111110 -
b101101101111111 ,
b1001 /
b101101101111111 "
b101101101111111 (
b1000 3
1!
1#
#1440
0!
0#
#1450
b1010 /
b1011100100000000 5
b1011100100000000 -
b101110010000000 ,
b1001 3
b101110010000000 "
b101110010000000 (
1!
1#
#1460
0!
0#
#1470
b1011101100000010 5
b1011101100000010 -
b101110110000001 ,
b1011 /
b101110110000001 "
b101110110000001 (
b1010 3
1!
1#
#1480
0!
0#
#1490
b1100 /
b1011110100000100 5
b1011110100000100 -
b101111010000010 ,
b1011 3
b101111010000010 "
b101111010000010 (
1!
1#
#1500
0!
0#
#1510
b1011111100000110 5
b1011111100000110 -
b101111110000011 ,
b1101 /
b101111110000011 "
b101111110000011 (
b1100 3
1!
1#
#1520
0!
0#
#1530
b1110 /
b1100000100001000 5
b1100000100001000 -
b110000010000100 ,
b1101 3
b110000010000100 "
b110000010000100 (
1!
1#
#1540
0!
0#
#1550
b1100001100001010 5
b1100001100001010 -
b110000110000101 ,
b1111 /
b110000110000101 "
b110000110000101 (
b1110 3
1!
1#
#1560
0!
0#
#1570
b10000 /
b1100010100001100 5
b1100010100001100 -
b110001010000110 ,
b1111 3
b110001010000110 "
b110001010000110 (
1!
1#
#1580
0!
0#
#1590
b1100011100001110 5
b1100011100001110 -
b110001110000111 ,
b10001 /
b110001110000111 "
b110001110000111 (
b10000 3
1!
1#
#1600
0!
0#
#1610
b10010 /
b1100100100010000 5
b1100100100010000 -
b110010010001000 ,
b10001 3
b110010010001000 "
b110010010001000 (
1!
1#
#1620
0!
0#
#1630
b1100101100010010 5
b1100101100010010 -
b110010110001001 ,
b10011 /
b110010110001001 "
b110010110001001 (
b10010 3
1!
1#
#1640
0!
0#
#1650
b10100 /
b1100110100010100 5
b1100110100010100 -
b110011010001010 ,
b10011 3
b110011010001010 "
b110011010001010 (
1!
1#
#1660
0!
0#
#1670
b1100111100010110 5
b1100111100010110 -
b110011110001011 ,
b10101 /
b110011110001011 "
b110011110001011 (
b10100 3
1!
1#
#1680
0!
0#
#1690
b10110 /
b1101000100011000 5
b1101000100011000 -
b110100010001100 ,
b10101 3
b110100010001100 "
b110100010001100 (
1!
1#
#1700
0!
0#
#1710
b1101001100011010 5
b1101001100011010 -
b110100110001101 ,
b10111 /
b110100110001101 "
b110100110001101 (
b10110 3
1!
1#
#1720
0!
0#
#1730
b11000 /
b1101010100011100 5
b1101010100011100 -
b110101010001110 ,
b10111 3
b110101010001110 "
b110101010001110 (
1!
1#
#1740
0!
0#
#1750
b1101011100011110 5
b1101011100011110 -
b110101110001111 ,
b11001 /
b110101110001111 "
b110101110001111 (
b11000 3
1!
1#
#1760
0!
0#
#1770
b11010 /
b1101100100100000 5
b1101100100100000 -
b110110010010000 ,
b11001 3
b110110010010000 "
b110110010010000 (
1!
1#
#1780
0!
0#
#1790
b1101101100100010 5
b1101101100100010 -
b110110110010001 ,
b11011 /
b110110110010001 "
b110110110010001 (
b11010 3
1!
1#
#1800
0!
0#
#1810
b11100 /
b1101110100100100 5
b1101110100100100 -
b110111010010010 ,
b11011 3
b110111010010010 "
b110111010010010 (
1!
1#
#1820
0!
0#
#1830
b1101111100100110 5
b1101111100100110 -
b110111110010011 ,
b11101 /
b110111110010011 "
b110111110010011 (
b11100 3
1!
1#
#1840
0!
0#
#1850
b11110 /
b1110000100101000 5
b1110000100101000 -
b111000010010100 ,
b11101 3
b111000010010100 "
b111000010010100 (
1!
1#
#1860
0!
0#
#1870
b1110001100101010 5
b1110001100101010 -
b111000110010101 ,
b11111 /
b111000110010101 "
b111000110010101 (
b11110 3
1!
1#
#1880
0!
0#
#1890
b0 /
b1110010100101100 5
b1110010100101100 -
b111001010010110 ,
b11111 3
b111001010010110 "
b111001010010110 (
1!
1#
#1900
0!
0#
#1910
b1110011100101110 5
b1110011100101110 -
b111001110010111 ,
b1 /
b111001110010111 "
b111001110010111 (
b0 3
1!
1#
#1920
0!
0#
#1930
b10 /
b1110100100110000 5
b1110100100110000 -
b111010010011000 ,
b1 3
b111010010011000 "
b111010010011000 (
1!
1#
#1940
0!
0#
#1950
b1110101100110010 5
b1110101100110010 -
b111010110011001 ,
b11 /
b111010110011001 "
b111010110011001 (
b10 3
1!
1#
#1960
0!
0#
#1970
b100 /
b1110110100110100 5
b1110110100110100 -
b111011010011010 ,
b11 3
b111011010011010 "
b111011010011010 (
1!
1#
#1980
0!
0#
#1990
b1110111100110110 5
b1110111100110110 -
b111011110011011 ,
b101 /
b111011110011011 "
b111011110011011 (
b100 3
1!
1#
#2000
0!
0#
#2010
b110 /
b1111000100111000 5
b1111000100111000 -
b111100010011100 ,
b101 3
b111100010011100 "
b111100010011100 (
1!
1#
#2020
0!
0#
#2030
b1111001100111010 5
b1111001100111010 -
b111100110011101 ,
b111 /
b111100110011101 "
b111100110011101 (
b110 3
1!
1#
#2040
0!
0#
#2050
b1000 /
b1111010100111100 5
b1111010100111100 -
b111101010011110 ,
b111 3
b111101010011110 "
b111101010011110 (
1!
1#
#2060
0!
0#
#2070
b1111011100111110 5
b1111011100111110 -
b111101110011111 ,
b1001 /
b111101110011111 "
b111101110011111 (
b1000 3
1!
1#
#2080
0!
0#
#2090
b1010 /
b1111100101000000 5
b1111100101000000 -
b111110010100000 ,
b1001 3
b111110010100000 "
b111110010100000 (
1!
1#
#2100
0!
0#
#2110
b1111101101000010 5
b1111101101000010 -
b111110110100001 ,
b1011 /
b111110110100001 "
b111110110100001 (
b1010 3
1!
1#
#2120
0!
0#
#2130
b1100 /
b1111110101000100 5
b1111110101000100 -
b111111010100010 ,
b1011 3
b111111010100010 "
b111111010100010 (
1!
1#
#2140
0!
0#
#2150
b1111111101000110 5
b1111111101000110 -
b111111110100011 ,
b1101 /
b111111110100011 "
b111111110100011 (
b1100 3
1!
1#
#2160
0!
0#
#2170
b1110 /
b110000000101001000 5
b110000000101001000 -
b1000000010100100 ,
b1101 3
b1000000010100100 "
b1000000010100100 (
1!
1#
#2180
0!
0#
#2190
b110000001101001010 5
b110000001101001010 -
b1000000110100101 ,
b1111 /
b1000000110100101 "
b1000000110100101 (
b1110 3
1!
1#
#2200
0!
0#
#2210
b10000 /
b110000010101001100 5
b110000010101001100 -
b1000001010100110 ,
b1111 3
b1000001010100110 "
b1000001010100110 (
1!
1#
#2220
0!
0#
#2230
b110000011101001110 5
b110000011101001110 -
b1000001110100111 ,
b10001 /
b1000001110100111 "
b1000001110100111 (
b10000 3
1!
1#
#2240
0!
0#
#2250
b10010 /
b110000100101010000 5
b110000100101010000 -
b1000010010101000 ,
b10001 3
b1000010010101000 "
b1000010010101000 (
1!
1#
#2260
0!
0#
#2270
b110000101101010010 5
b110000101101010010 -
b1000010110101001 ,
b10011 /
b1000010110101001 "
b1000010110101001 (
b10010 3
1!
1#
#2280
0!
0#
#2290
b10100 /
b110000110101010100 5
b110000110101010100 -
b1000011010101010 ,
b10011 3
b1000011010101010 "
b1000011010101010 (
1!
1#
#2300
0!
0#
#2310
b110000111101010110 5
b110000111101010110 -
b1000011110101011 ,
b10101 /
b1000011110101011 "
b1000011110101011 (
b10100 3
1!
1#
#2320
0!
0#
#2330
b10110 /
b110001000101011000 5
b110001000101011000 -
b1000100010101100 ,
b10101 3
b1000100010101100 "
b1000100010101100 (
1!
1#
#2340
0!
0#
#2350
b110001001101011010 5
b110001001101011010 -
b1000100110101101 ,
b10111 /
b1000100110101101 "
b1000100110101101 (
b10110 3
1!
1#
#2360
0!
0#
#2370
b11000 /
b110001010101011100 5
b110001010101011100 -
b1000101010101110 ,
b10111 3
b1000101010101110 "
b1000101010101110 (
1!
1#
#2380
0!
0#
#2390
b110001011101011110 5
b110001011101011110 -
b1000101110101111 ,
b11001 /
b1000101110101111 "
b1000101110101111 (
b11000 3
1!
1#
#2400
0!
0#
#2410
b11010 /
b110001100101100000 5
b110001100101100000 -
b1000110010110000 ,
b11001 3
b1000110010110000 "
b1000110010110000 (
1!
1#
#2420
0!
0#
#2430
b110001101101100010 5
b110001101101100010 -
b1000110110110001 ,
b11011 /
b1000110110110001 "
b1000110110110001 (
b11010 3
1!
1#
#2440
0!
0#
#2450
b11100 /
b110001110101100100 5
b110001110101100100 -
b1000111010110010 ,
b11011 3
b1000111010110010 "
b1000111010110010 (
1!
1#
#2460
0!
0#
#2470
b110001111101100110 5
b110001111101100110 -
b1000111110110011 ,
b11101 /
b1000111110110011 "
b1000111110110011 (
b11100 3
1!
1#
#2480
0!
0#
#2490
b11110 /
b110010000101101000 5
b110010000101101000 -
b1001000010110100 ,
b11101 3
b1001000010110100 "
b1001000010110100 (
1!
1#
#2500
0!
0#
#2510
b110010001101101010 5
b110010001101101010 -
b1001000110110101 ,
b11111 /
b1001000110110101 "
b1001000110110101 (
b11110 3
1!
1#
#2520
0!
0#
#2530
b0 /
b110010010101101100 5
b110010010101101100 -
b1001001010110110 ,
b11111 3
b1001001010110110 "
b1001001010110110 (
1!
1#
#2540
0!
0#
#2550
b110010011101101110 5
b110010011101101110 -
b1001001110110111 ,
b1 /
b1001001110110111 "
b1001001110110111 (
b0 3
1!
1#
#2560
0!
0#
#2570
b10 /
b110010100101110000 5
b110010100101110000 -
b1001010010111000 ,
b1 3
b1001010010111000 "
b1001010010111000 (
1!
1#
#2580
0!
0#
#2590
b110010101101110010 5
b110010101101110010 -
b1001010110111001 ,
b11 /
b1001010110111001 "
b1001010110111001 (
b10 3
1!
1#
#2600
0!
0#
#2610
b100 /
b110010110101110100 5
b110010110101110100 -
b1001011010111010 ,
b11 3
b1001011010111010 "
b1001011010111010 (
1!
1#
#2620
0!
0#
#2630
b110010111101110110 5
b110010111101110110 -
b1001011110111011 ,
b101 /
b1001011110111011 "
b1001011110111011 (
b100 3
1!
1#
#2640
0!
0#
#2650
b110 /
b110011000101111000 5
b110011000101111000 -
b1001100010111100 ,
b101 3
b1001100010111100 "
b1001100010111100 (
1!
1#
#2660
0!
0#
#2670
b110011001101111010 5
b110011001101111010 -
b1001100110111101 ,
b111 /
b1001100110111101 "
b1001100110111101 (
b110 3
1!
1#
#2680
0!
0#
#2690
b1000 /
b110011010101111100 5
b110011010101111100 -
b1001101010111110 ,
b111 3
b1001101010111110 "
b1001101010111110 (
1!
1#
#2700
0!
0#
#2710
b110011011101111110 5
b110011011101111110 -
b1001101110111111 ,
b1001 /
b1001101110111111 "
b1001101110111111 (
b1000 3
1!
1#
#2720
0!
0#
#2730
b1010 /
b110011100110000000 5
b110011100110000000 -
b1001110011000000 ,
b1001 3
b1001110011000000 "
b1001110011000000 (
1!
1#
#2740
0!
0#
#2750
b110011101110000010 5
b110011101110000010 -
b1001110111000001 ,
b1011 /
b1001110111000001 "
b1001110111000001 (
b1010 3
1!
1#
#2760
0!
0#
#2770
b1100 /
b110011110110000100 5
b110011110110000100 -
b1001111011000010 ,
b1011 3
b1001111011000010 "
b1001111011000010 (
1!
1#
#2780
0!
0#
#2790
b110011111110000110 5
b110011111110000110 -
b1001111111000011 ,
b1101 /
b1001111111000011 "
b1001111111000011 (
b1100 3
1!
1#
#2800
0!
0#
#2810
b1110 /
b110100000110001000 5
b110100000110001000 -
b1010000011000100 ,
b1101 3
b1010000011000100 "
b1010000011000100 (
1!
1#
#2820
0!
0#
#2830
b110100001110001010 5
b110100001110001010 -
b1010000111000101 ,
b1111 /
b1010000111000101 "
b1010000111000101 (
b1110 3
1!
1#
#2840
0!
0#
#2850
b10000 /
b110100010110001100 5
b110100010110001100 -
b1010001011000110 ,
b1111 3
b1010001011000110 "
b1010001011000110 (
1!
1#
#2860
0!
0#
#2870
b110100011110001110 5
b110100011110001110 -
b1010001111000111 ,
b10001 /
b1010001111000111 "
b1010001111000111 (
b10000 3
1!
1#
#2880
0!
0#
#2890
b10010 /
b110100100110010000 5
b110100100110010000 -
b1010010011001000 ,
b10001 3
b1010010011001000 "
b1010010011001000 (
1!
1#
#2900
0!
0#
#2910
b110100101110010010 5
b110100101110010010 -
b1010010111001001 ,
b10011 /
b1010010111001001 "
b1010010111001001 (
b10010 3
1!
1#
#2920
0!
0#
#2930
b10100 /
b110100110110010100 5
b110100110110010100 -
b1010011011001010 ,
b10011 3
b1010011011001010 "
b1010011011001010 (
1!
1#
#2940
0!
0#
#2950
b110100111110010110 5
b110100111110010110 -
b1010011111001011 ,
b10101 /
b1010011111001011 "
b1010011111001011 (
b10100 3
1!
1#
#2960
0!
0#
#2970
b10110 /
b110101000110011000 5
b110101000110011000 -
b1010100011001100 ,
b10101 3
b1010100011001100 "
b1010100011001100 (
1!
1#
#2980
0!
0#
#2990
b110101001110011010 5
b110101001110011010 -
b1010100111001101 ,
b10111 /
b1010100111001101 "
b1010100111001101 (
b10110 3
1!
1#
#3000
0!
0#
#3010
b11000 /
b110101010110011100 5
b110101010110011100 -
b1010101011001110 ,
b10111 3
b1010101011001110 "
b1010101011001110 (
1!
1#
#3020
0!
0#
#3030
b110101011110011110 5
b110101011110011110 -
b1010101111001111 ,
b11001 /
b1010101111001111 "
b1010101111001111 (
b11000 3
1!
1#
#3040
0!
0#
#3050
b11010 /
b110101100110100000 5
b110101100110100000 -
b1010110011010000 ,
b11001 3
b1010110011010000 "
b1010110011010000 (
1!
1#
#3060
0!
0#
#3070
b110101101110100010 5
b110101101110100010 -
b1010110111010001 ,
b11011 /
b1010110111010001 "
b1010110111010001 (
b11010 3
1!
1#
#3080
0!
0#
#3090
b11100 /
b110101110110100100 5
b110101110110100100 -
b1010111011010010 ,
b11011 3
b1010111011010010 "
b1010111011010010 (
1!
1#
#3100
0!
0#
#3110
b110101111110100110 5
b110101111110100110 -
b1010111111010011 ,
b11101 /
b1010111111010011 "
b1010111111010011 (
b11100 3
1!
1#
#3120
0!
0#
#3130
b11110 /
b110110000110101000 5
b110110000110101000 -
b1011000011010100 ,
b11101 3
b1011000011010100 "
b1011000011010100 (
1!
1#
#3140
0!
0#
#3150
b110110001110101010 5
b110110001110101010 -
b1011000111010101 ,
b11111 /
b1011000111010101 "
b1011000111010101 (
b11110 3
1!
1#
#3160
0!
0#
#3170
b0 /
b110110010110101100 5
b110110010110101100 -
b1011001011010110 ,
b11111 3
b1011001011010110 "
b1011001011010110 (
1!
1#
#3180
0!
0#
#3190
b110110011110101110 5
b110110011110101110 -
b1011001111010111 ,
b1 /
b1011001111010111 "
b1011001111010111 (
b0 3
1!
1#
#3200
0!
0#
#3210
b10 /
b110110100110110000 5
b110110100110110000 -
b1011010011011000 ,
b1 3
b1011010011011000 "
b1011010011011000 (
1!
1#
#3220
0!
0#
#3230
b110110101110110010 5
b110110101110110010 -
b1011010111011001 ,
b11 /
b1011010111011001 "
b1011010111011001 (
b10 3
1!
1#
#3240
0!
0#
#3250
b100 /
b110110110110110100 5
b110110110110110100 -
b1011011011011010 ,
b11 3
b1011011011011010 "
b1011011011011010 (
1!
1#
#3260
0!
0#
#3270
b110110111110110110 5
b110110111110110110 -
b1011011111011011 ,
b101 /
b1011011111011011 "
b1011011111011011 (
b100 3
1!
1#
#3280
0!
0#
#3290
b110 /
b110111000110111000 5
b110111000110111000 -
b1011100011011100 ,
b101 3
b1011100011011100 "
b1011100011011100 (
1!
1#
#3300
0!
0#
#3310
b110111001110111010 5
b110111001110111010 -
b1011100111011101 ,
b111 /
b1011100111011101 "
b1011100111011101 (
b110 3
1!
1#
#3320
0!
0#
#3330
b1000 /
b110111010110111100 5
b110111010110111100 -
b1011101011011110 ,
b111 3
b1011101011011110 "
b1011101011011110 (
1!
1#
#3340
0!
0#
#3350
b110111011110111110 5
b110111011110111110 -
b1011101111011111 ,
b1001 /
b1011101111011111 "
b1011101111011111 (
b1000 3
1!
1#
#3360
0!
0#
#3370
b1010 /
b110111100111000000 5
b110111100111000000 -
b1011110011100000 ,
b1001 3
b1011110011100000 "
b1011110011100000 (
1!
1#
#3380
0!
0#
#3390
b110111101111000010 5
b110111101111000010 -
b1011110111100001 ,
b1011 /
b1011110111100001 "
b1011110111100001 (
b1010 3
1!
1#
#3400
0!
0#
#3410
b1100 /
b110111110111000100 5
b110111110111000100 -
b1011111011100010 ,
b1011 3
b1011111011100010 "
b1011111011100010 (
1!
1#
#3420
0!
0#
#3430
b110111111111000110 5
b110111111111000110 -
b1011111111100011 ,
b1101 /
b1011111111100011 "
b1011111111100011 (
b1100 3
1!
1#
#3440
0!
0#
#3450
b1110 /
b111000000111001000 5
b111000000111001000 -
b1100000011100100 ,
b1101 3
b1100000011100100 "
b1100000011100100 (
1!
1#
#3460
0!
0#
#3470
b111000001111001010 5
b111000001111001010 -
b1100000111100101 ,
b1111 /
b1100000111100101 "
b1100000111100101 (
b1110 3
1!
1#
#3480
0!
0#
#3490
b10000 /
b111000010111001100 5
b111000010111001100 -
b1100001011100110 ,
b1111 3
b1100001011100110 "
b1100001011100110 (
1!
1#
#3500
0!
0#
#3510
b111000011111001110 5
b111000011111001110 -
b1100001111100111 ,
b10001 /
b1100001111100111 "
b1100001111100111 (
b10000 3
1!
1#
#3520
0!
0#
#3530
b10010 /
b111000100111010000 5
b111000100111010000 -
b1100010011101000 ,
b10001 3
b1100010011101000 "
b1100010011101000 (
1!
1#
#3540
0!
0#
#3550
b111000101111010010 5
b111000101111010010 -
b1100010111101001 ,
b10011 /
b1100010111101001 "
b1100010111101001 (
b10010 3
1!
1#
#3560
0!
0#
