fpga/usrp2/autoc/autoc_delay_mult.vcd
$date
	Thu Mar 21 15:39:15 2013
$end
$version
	Icarus Verilog
$end
$timescale
	1s
$end
$scope module autoc_delay_mult_tb $end
$var reg 1 ! clk $end
$var reg 16 " fake_data [15:0] $end
$scope module ac $end
$var wire 1 # clk $end
$var wire 1 $ delay_line_enabled $end
$var wire 31 % delay_mult_out [32:2] $end
$var wire 16 & delayed_sample [15:0] $end
$var wire 36 ' mult_out [35:0] $end
$var wire 16 ( sample_in [15:0] $end
$var wire 1 ) strobe $end
$var reg 1 * mult_strobe $end
$scope function pad $end
$var reg 16 + n [15:0] $end
$var reg 18 , pad [17:0] $end
$upscope $end
$scope module delay $end
$var wire 1 # clk $end
$var wire 16 - din [15:0] $end
$var wire 32 . rd_ptr [31:0] $end
$var reg 16 / dout [15:0] $end
$var integer 32 0 k [31:0] $end
$var reg 1 1 outputting $end
$var integer 32 2 wr_ptr [31:0] $end
$upscope $end
$scope module ii_mult $end
$var wire 18 3 A [17:0] $end
$var wire 18 4 B [17:0] $end
$var wire 1 # C $end
$var wire 1 $ CE $end
$var wire 1 5 R $end
$var reg 36 6 P [35:0] $end
$upscope $end
$upscope $end
$upscope $end
$enddefinitions $end
#0
$dumpvars
bx 6
05
b10011001101110 4
bx0 3
b0 2
01
b11111 0
bx /
b1 .
b1001100110111 -
b10011001101110 ,
b1001100110111 +
x*
x)
b1001100110111 (
bx '
bx &
bx %
0$
0#
b1001100110111 "
0!
$end
#10
b10 .
b0 3
b10100001110000 4
b0 ,
b0 +
b1 2
b0 /
b0 &
0*
0)
b1010000111000 "
b1010000111000 (
b1010000111000 -
1!
1#
#20
0!
0#
#30
b10101001110010 4
b10101001110010 ,
b1010100111001 +
b11 .
b1010100111001 "
b1010100111001 (
b1010100111001 -
b10 2
1!
1#
#40
0!
0#
#50
b100 .
b10110001110100 4
b10110001110100 ,
b1011000111010 +
b11 2
b1011000111010 "
b1011000111010 (
b1011000111010 -
1!
1#
#60
0!
0#
#70
b10111001110110 4
b10111001110110 ,
b1011100111011 +
b101 .
b1011100111011 "
b1011100111011 (
b1011100111011 -
b100 2
1!
1#
#80
0!
0#
#90
b110 .
b11000001111000 4
b11000001111000 ,
b1100000111100 +
b101 2
b1100000111100 "
b1100000111100 (
b1100000111100 -
1!
1#
#100
0!
0#
#110
b11001001111010 4
b11001001111010 ,
b1100100111101 +
b111 .
b1100100111101 "
b1100100111101 (
b1100100111101 -
b110 2
1!
1#
#120
0!
0#
#130
b1000 .
b11010001111100 4
b11010001111100 ,
b1101000111110 +
b111 2
b1101000111110 "
b1101000111110 (
b1101000111110 -
1!
1#
#140
0!
0#
#150
b11011001111110 4
b11011001111110 ,
b1101100111111 +
b1001 .
b1101100111111 "
b1101100111111 (
b1101100111111 -
b1000 2
1!
1#
#160
0!
0#
#170
b1010 .
b11100010000000 4
b11100010000000 ,
b1110001000000 +
b1001 2
b1110001000000 "
b1110001000000 (
b1110001000000 -
1!
1#
#180
0!
0#
#190
b11101010000010 4
b11101010000010 ,
b1110101000001 +
b1011 .
b1110101000001 "
b1110101000001 (
b1110101000001 -
b1010 2
1!
1#
#200
0!
0#
#210
b1100 .
b11110010000100 4
b11110010000100 ,
b1111001000010 +
b1011 2
b1111001000010 "
b1111001000010 (
b1111001000010 -
1!
1#
#220
0!
0#
#230
b11111010000110 4
b11111010000110 ,
b1111101000011 +
b1101 .
b1111101000011 "
b1111101000011 (
b1111101000011 -
b1100 2
1!
1#
#240
0!
0#
#250
b1110 .
b100000010001000 4
b100000010001000 ,
b10000001000100 +
b1101 2
b10000001000100 "
b10000001000100 (
b10000001000100 -
1!
1#
#260
0!
0#
#270
b100001010001010 4
b100001010001010 ,
b10000101000101 +
b1111 .
b10000101000101 "
b10000101000101 (
b10000101000101 -
b1110 2
1!
1#
#280
0!
0#
#290
b10000 .
b100010010001100 4
b100010010001100 ,
b10001001000110 +
b1111 2
b10001001000110 "
b10001001000110 (
b10001001000110 -
1!
1#
#300
0!
0#
#310
b100011010001110 4
b100011010001110 ,
b10001101000111 +
b10001 .
b10001101000111 "
b10001101000111 (
b10001101000111 -
b10000 2
1!
1#
#320
0!
0#
#330
b10010 .
b100100010010000 4
b100100010010000 ,
b10010001001000 +
b10001 2
b10010001001000 "
b10010001001000 (
b10010001001000 -
1!
1#
#340
0!
0#
#350
b100101010010010 4
b100101010010010 ,
b10010101001001 +
b10011 .
b10010101001001 "
b10010101001001 (
b10010101001001 -
b10010 2
1!
1#
#360
0!
0#
#370
b10100 .
b100110010010100 4
b100110010010100 ,
b10011001001010 +
b10011 2
b10011001001010 "
b10011001001010 (
b10011001001010 -
1!
1#
#380
0!
0#
#390
b100111010010110 4
b100111010010110 ,
b10011101001011 +
b10101 .
b10011101001011 "
b10011101001011 (
b10011101001011 -
b10100 2
1!
1#
#400
0!
0#
#410
b10110 .
b101000010011000 4
b101000010011000 ,
b10100001001100 +
b10101 2
b10100001001100 "
b10100001001100 (
b10100001001100 -
1!
1#
#420
0!
0#
#430
b101001010011010 4
b101001010011010 ,
b10100101001101 +
b10111 .
b10100101001101 "
b10100101001101 (
b10100101001101 -
b10110 2
1!
1#
#440
0!
0#
#450
b11000 .
b101010010011100 4
b101010010011100 ,
b10101001001110 +
b10111 2
b10101001001110 "
b10101001001110 (
b10101001001110 -
1!
1#
#460
0!
0#
#470
b101011010011110 4
b101011010011110 ,
b10101101001111 +
b11001 .
b10101101001111 "
b10101101001111 (
b10101101001111 -
b11000 2
1!
1#
#480
0!
0#
#490
b11010 .
b101100010100000 4
b101100010100000 ,
b10110001010000 +
b11001 2
b10110001010000 "
b10110001010000 (
b10110001010000 -
1!
1#
#500
0!
0#
#510
b101101010100010 4
b101101010100010 ,
b10110101010001 +
b11011 .
b10110101010001 "
b10110101010001 (
b10110101010001 -
b11010 2
1!
1#
#520
0!
0#
#530
b11100 .
b101110010100100 4
b101110010100100 ,
b10111001010010 +
b11011 2
b10111001010010 "
b10111001010010 (
b10111001010010 -
1!
1#
#540
0!
0#
#550
b101111010100110 4
b101111010100110 ,
b10111101010011 +
b11101 .
b10111101010011 "
b10111101010011 (
b10111101010011 -
b11100 2
1!
1#
#560
0!
0#
#570
b11110 .
b110000010101000 4
b110000010101000 ,
b11000001010100 +
b11101 2
b11000001010100 "
b11000001010100 (
b11000001010100 -
1!
1#
#580
0!
0#
#590
b110001010101010 4
b110001010101010 ,
b11000101010101 +
b11111 .
b11000101010101 "
b11000101010101 (
b11000101010101 -
b11110 2
1!
1#
#600
0!
0#
#610
b0 .
bx0 3
b110010010101100 4
bx0 ,
bx +
b11111 2
bx /
bx &
b11001001010110 "
b11001001010110 (
b11001001010110 -
1!
1#
#620
0!
0#
#630
b110011010101110 4
b1 .
b10011001101110 3
b110011010101110 ,
b11001101010111 +
b11001101010111 "
b11001101010111 (
b11001101010111 -
11
1$
b0 2
b1001100110111 /
b1001100110111 &
1!
1#
#640
0!
0#
#650
b11110110100111110010110001 %
b10 .
b10100001110000 3
b110100010110000 4
b10100001110000 ,
b1010000111000 +
b1 2
b1010000111000 /
b1010000111000 &
b1111011010011111001011000100 6
b1111011010011111001011000100 '
1*
1)
b11010001011000 "
b11010001011000 (
b11010001011000 -
1!
1#
#660
0!
0#
#670
b100001000100101001101000000 %
b110101010110010 4
b11 .
b10101001110010 3
b110101010110010 ,
b11010101011001 +
b11010101011001 "
b11010101011001 (
b11010101011001 -
b10000100010010100110100000000 6
b10000100010010100110100000000 '
b10 2
b1010100111001 /
b1010100111001 &
1!
1#
#680
0!
0#
#690
b100011011000010110111010001 %
b100 .
b10110001110100 3
b110110010110100 4
b10110001110100 ,
b1011000111010 +
b11 2
b1011000111010 /
b1011000111010 &
b10001101100001011011101000100 6
b10001101100001011011101000100 '
b11011001011010 "
b11011001011010 (
b11011001011010 -
1!
1#
#700
0!
0#
#710
b100101110000000110001100100 %
b110111010110110 4
b101 .
b10111001110110 3
b110111010110110 ,
b11011101011011 +
b11011101011011 "
b11011101011011 (
b11011101011011 -
b10010111000000011000110010000 6
b10010111000000011000110010000 '
b100 2
b1011100111011 /
b1011100111011 &
1!
1#
#720
0!
0#
#730
b101000001011110111011111001 %
b110 .
b11000001111000 3
b111000010111000 4
b11000001111000 ,
b1100000111100 +
b101 2
b1100000111100 /
b1100000111100 &
b10100000101111011101111100100 6
b10100000101111011101111100100 '
b11100001011100 "
b11100001011100 (
b11100001011100 -
1!
1#
#740
0!
0#
#750
b101010101011101010110010000 %
b111001010111010 4
b111 .
b11001001111010 3
b111001010111010 ,
b11100101011101 +
b11100101011101 "
b11100101011101 (
b11100101011101 -
b10101010101110101011001000000 6
b10101010101110101011001000000 '
b110 2
b1100100111101 /
b1100100111101 &
1!
1#
#760
0!
0#
#770
b101101001111100000000101001 %
b1000 .
b11010001111100 3
b111010010111100 4
b11010001111100 ,
b1101000111110 +
b111 2
b1101000111110 /
b1101000111110 &
b10110100111110000000010100100 6
b10110100111110000000010100100 '
b11101001011110 "
b11101001011110 (
b11101001011110 -
1!
1#
#780
0!
0#
#790
b101111110111010111011000100 %
b111011010111110 4
b1001 .
b11011001111110 3
b111011010111110 ,
b11101101011111 +
b11101101011111 "
b11101101011111 (
b11101101011111 -
b10111111011101011101100010000 6
b10111111011101011101100010000 '
b1000 2
b1101100111111 /
b1101100111111 &
1!
1#
#800
0!
0#
#810
b110010100011010000101100001 %
b1010 .
b11100010000000 3
b111100011000000 4
b11100010000000 ,
b1110001000000 +
b1001 2
b1110001000000 /
b1110001000000 &
b11001010001101000010110000100 6
b11001010001101000010110000100 '
b11110001100000 "
b11110001100000 (
b11110001100000 -
1!
1#
#820
0!
0#
#830
b110101010011001100000000000 %
b111101011000010 4
b1011 .
b11101010000010 3
b111101011000010 ,
b11110101100001 +
b11110101100001 "
b11110101100001 (
b11110101100001 -
b11010101001100110000000000000 6
b11010101001100110000000000000 '
b1010 2
b1110101000001 /
b1110101000001 &
1!
1#
#840
0!
0#
#850
b111000000111001001010100001 %
b1100 .
b11110010000100 3
b111110011000100 4
b11110010000100 ,
b1111001000010 +
b1011 2
b1111001000010 /
b1111001000010 &
b11100000011100100101010000100 6
b11100000011100100101010000100 '
b11111001100010 "
b11111001100010 (
b11111001100010 -
1!
1#
#860
0!
0#
#870
b111010111111001000101000100 %
b111111011000110 4
b1101 .
b11111010000110 3
b111111011000110 ,
b11111101100011 +
b11111101100011 "
b11111101100011 (
b11111101100011 -
b11101011111100100010100010000 6
b11101011111100100010100010000 '
b1100 2
b1111101000011 /
b1111101000011 &
1!
1#
#880
0!
0#
#890
b111101111011001001111101001 %
b1110 .
b100000010001000 3
b1000000011001000 4
b100000010001000 ,
b10000001000100 +
b1101 2
b10000001000100 /
b10000001000100 &
b11110111101100100111110100100 6
b11110111101100100111110100100 '
b100000001100100 "
b100000001100100 (
b100000001100100 -
1!
1#
#900
0!
0#
#910
b1000000111011001101010010000 %
b1000001011001010 4
b1111 .
b100001010001010 3
b1000001011001010 ,
b100000101100101 +
b100000101100101 "
b100000101100101 (
b100000101100101 -
b100000011101100110101001000000 6
b100000011101100110101001000000 '
b1110 2
b10000101000101 /
b10000101000101 &
1!
1#
#920
0!
0#
#930
b1000011111111010010100111001 %
b10000 .
b100010010001100 3
b1000010011001100 4
b100010010001100 ,
b10001001000110 +
b1111 2
b10001001000110 /
b10001001000110 &
b100001111111101001010011100100 6
b100001111111101001010011100100 '
b100001001100110 "
b100001001100110 (
b100001001100110 -
1!
1#
#940
0!
0#
#950
b1000111000111011001111100100 %
b1000011011001110 4
b10001 .
b100011010001110 3
b1000011011001110 ,
b100001101100111 +
b100001101100111 "
b100001101100111 (
b100001101100111 -
b100011100011101100111110010000 6
b100011100011101100111110010000 '
b10000 2
b10001101000111 /
b10001101000111 &
1!
1#
#960
0!
0#
#970
b1001010010011100011010010001 %
b10010 .
b100100010010000 3
b1000100011010000 4
b100100010010000 ,
b10010001001000 +
b10001 2
b10010001001000 /
b10010001001000 &
b100101001001110001101001000100 6
b100101001001110001101001000100 '
b100010001101000 "
b100010001101000 (
b100010001101000 -
1!
1#
#980
0!
0#
#990
b1001101100011101110101000000 %
b1000101011010010 4
b10011 .
b100101010010010 3
b1000101011010010 ,
b100010101101001 +
b100010101101001 "
b100010101101001 (
b100010101101001 -
b100110110001110111010100000000 6
b100110110001110111010100000000 '
b10010 2
b10010101001001 /
b10010101001001 &
1!
1#
#1000
0!
0#
#1010
b1010000110111111011111110001 %
b10100 .
b100110010010100 3
b1000110011010100 4
b100110010010100 ,
b10011001001010 +
b10011 2
b10011001001010 /
b10011001001010 &
b101000011011111101111111000100 6
b101000011011111101111111000100 '
b100011001101010 "
b100011001101010 (
b100011001101010 -
1!
1#
#1020
0!
0#
#1030
b1010100010000001011010100100 %
b1000111011010110 4
b10101 .
b100111010010110 3
b1000111011010110 ,
b100011101101011 +
b100011101101011 "
b100011101101011 (
b100011101101011 -
b101010001000000101101010010000 6
b101010001000000101101010010000 '
b10100 2
b10011101001011 /
b10011101001011 &
1!
1#
#1040
0!
0#
#1050
b1010111101100011100101011001 %
b10110 .
b101000010011000 3
b1001000011011000 4
b101000010011000 ,
b10100001001100 +
b10101 2
b10100001001100 /
b10100001001100 &
b101011110110001110010101100100 6
b101011110110001110010101100100 '
b100100001101100 "
b100100001101100 (
b100100001101100 -
1!
1#
#1060
0!
0#
#1070
b1011011001100110000000010000 %
b1001001011011010 4
b10111 .
b101001010011010 3
b1001001011011010 ,
b100100101101101 +
b100100101101101 "
b100100101101101 (
b100100101101101 -
b101101100110011000000001000000 6
b101101100110011000000001000000 '
b10110 2
b10100101001101 /
b10100101001101 &
1!
1#
#1080
0!
0#
#1090
b1011110110001000101011001001 %
b11000 .
b101010010011100 3
b1001010011011100 4
b101010010011100 ,
b10101001001110 +
b10111 2
b10101001001110 /
b10101001001110 &
b101111011000100010101100100100 6
b101111011000100010101100100100 '
b100101001101110 "
b100101001101110 (
b100101001101110 -
1!
1#
#1100
0!
0#
#1110
b1100010011001011100110000100 %
b1001011011011110 4
b11001 .
b101011010011110 3
b1001011011011110 ,
b100101101101111 +
b100101101101111 "
b100101101101111 (
b100101101101111 -
b110001001100101110011000010000 6
b110001001100101110011000010000 '
b11000 2
b10101101001111 /
b10101101001111 &
1!
1#
#1120
0!
0#
#1130
b1100110000101110110001000001 %
b11010 .
b101100010100000 3
b1001100011100000 4
b101100010100000 ,
b10110001010000 +
b11001 2
b10110001010000 /
b10110001010000 &
b110011000010111011000100000100 6
b110011000010111011000100000100 '
b100110001110000 "
b100110001110000 (
b100110001110000 -
1!
1#
#1140
0!
0#
#1150
b1101001110110010001100000000 %
b1001101011100010 4
b11011 .
b101101010100010 3
b1001101011100010 ,
b100110101110001 +
b100110101110001 "
b100110101110001 (
b100110101110001 -
b110100111011001000110000000000 6
b110100111011001000110000000000 '
b11010 2
b10110101010001 /
b10110101010001 &
1!
1#
#1160
0!
0#
#1170
b1101101101010101110111000001 %
b11100 .
b101110010100100 3
b1001110011100100 4
b101110010100100 ,
b10111001010010 +
b11011 2
b10111001010010 /
b10111001010010 &
b110110110101010111011100000100 6
b110110110101010111011100000100 '
b100111001110010 "
b100111001110010 (
b100111001110010 -
1!
1#
#1180
0!
0#
#1190
b1110001100011001110010000100 %
b1001111011100110 4
b11101 .
b101111010100110 3
b1001111011100110 ,
b100111101110011 +
b100111101110011 "
b100111101110011 (
b100111101110011 -
b111000110001100111001000010000 6
b111000110001100111001000010000 '
b11100 2
b10111101010011 /
b10111101010011 &
1!
1#
#1200
0!
0#
#1210
b1110101011111101111101001001 %
b11110 .
b110000010101000 3
b1010000011101000 4
b110000010101000 ,
b11000001010100 +
b11101 2
b11000001010100 /
b11000001010100 &
b111010101111110111110100100100 6
b111010101111110111110100100100 '
b101000001110100 "
b101000001110100 (
b101000001110100 -
1!
1#
#1220
0!
0#
#1230
b1111001100000010011000010000 %
b1010001011101010 4
b11111 .
b110001010101010 3
b1010001011101010 ,
b101000101110101 +
b101000101110101 "
b101000101110101 (
b101000101110101 -
b111100110000001001100001000000 6
b111100110000001001100001000000 '
b11110 2
b11000101010101 /
b11000101010101 &
1!
1#
#1240
0!
0#
#1250
b1111101100100111000011011001 %
b0 .
b110010010101100 3
b1010010011101100 4
b110010010101100 ,
b11001001010110 +
b11111 2
b11001001010110 /
b11001001010110 &
b111110110010011100001101100100 6
b111110110010011100001101100100 '
b101001001110110 "
b101001001110110 (
b101001001110110 -
1!
1#
#1260
0!
0#
#1270
b10000001101101011111110100100 %
b1010011011101110 4
b1 .
b110011010101110 3
b1010011011101110 ,
b101001101110111 +
b101001101110111 "
b101001101110111 (
b101001101110111 -
b1000000110110101111111010010000 6
b1000000110110101111111010010000 '
b0 2
b11001101010111 /
b11001101010111 &
1!
1#
#1280
0!
0#
#1290
b10000101111010001001001110001 %
b10 .
b110100010110000 3
b1010100011110000 4
b110100010110000 ,
b11010001011000 +
b1 2
b11010001011000 /
b11010001011000 &
b1000010111101000100100111000100 6
b1000010111101000100100111000100 '
b101010001111000 "
b101010001111000 (
b101010001111000 -
1!
1#
#1300
0!
0#
#1310
b10001010001010110100101000000 %
b1010101011110010 4
b11 .
b110101010110010 3
b1010101011110010 ,
b101010101111001 +
b101010101111001 "
b101010101111001 (
b101010101111001 -
b1000101000101011010010100000000 6
b1000101000101011010010100000000 '
b10 2
b11010101011001 /
b11010101011001 &
1!
1#
#1320
0!
0#
#1330
b10001110011111100010000010001 %
b100 .
b110110010110100 3
b1010110011110100 4
b110110010110100 ,
b11011001011010 +
b11 2
b11011001011010 /
b11011001011010 &
b1000111001111110001000001000100 6
b1000111001111110001000001000100 '
b101011001111010 "
b101011001111010 (
b101011001111010 -
1!
1#
#1340
0!
0#
#1350
b10010010111000010001011100100 %
b1010111011110110 4
b101 .
b110111010110110 3
b1010111011110110 ,
b101011101111011 +
b101011101111011 "
b101011101111011 (
b101011101111011 -
b1001001011100001000101110010000 6
b1001001011100001000101110010000 '
b100 2
b11011101011011 /
b11011101011011 &
1!
1#
#1360
0!
0#
#1370
b10010111010101000010110111001 %
b110 .
b111000010111000 3
b1011000011111000 4
b111000010111000 ,
b11100001011100 +
b101 2
b11100001011100 /
b11100001011100 &
b1001011101010100001011011100100 6
b1001011101010100001011011100100 '
b101100001111100 "
b101100001111100 (
b101100001111100 -
1!
1#
#1380
0!
0#
#1390
b10011011110101110110010010000 %
b1011001011111010 4
b111 .
b111001010111010 3
b1011001011111010 ,
b101100101111101 +
b101100101111101 "
b101100101111101 (
b101100101111101 -
b1001101111010111011001001000000 6
b1001101111010111011001001000000 '
b110 2
b11100101011101 /
b11100101011101 &
1!
1#
#1400
0!
0#
#1410
b10100000011010101011101101001 %
b1000 .
b111010010111100 3
b1011010011111100 4
b111010010111100 ,
b11101001011110 +
b111 2
b11101001011110 /
b11101001011110 &
b1010000001101010101110110100100 6
b1010000001101010101110110100100 '
b101101001111110 "
b101101001111110 (
b101101001111110 -
1!
1#
#1420
0!
0#
#1430
b10100101000011100011001000100 %
b1011011011111110 4
b1001 .
b111011010111110 3
b1011011011111110 ,
b101101101111111 +
b101101101111111 "
b101101101111111 (
b101101101111111 -
b1010010100001110001100100010000 6
b1010010100001110001100100010000 '
b1000 2
b11101101011111 /
b11101101011111 &
1!
1#
#1440
0!
0#
#1450
b10101001110000011100100100001 %
b1010 .
b111100011000000 3
b1011100100000000 4
b111100011000000 ,
b11110001100000 +
b1001 2
b11110001100000 /
b11110001100000 &
b1010100111000001110010010000100 6
b1010100111000001110010010000100 '
b101110010000000 "
b101110010000000 (
b101110010000000 -
1!
1#
#1460
0!
0#
#1470
b10101110100001011000000000000 %
b1011101100000010 4
b1011 .
b111101011000010 3
b1011101100000010 ,
b101110110000001 +
b101110110000001 "
b101110110000001 (
b101110110000001 -
b1010111010000101100000000000000 6
b1010111010000101100000000000000 '
b1010 2
b11110101100001 /
b11110101100001 &
1!
1#
#1480
0!
0#
#1490
b10110011010110010101011100001 %
b1100 .
b111110011000100 3
b1011110100000100 4
b111110011000100 ,
b11111001100010 +
b1011 2
b11111001100010 /
b11111001100010 &
b1011001101011001010101110000100 6
b1011001101011001010101110000100 '
b101111010000010 "
b101111010000010 (
b101111010000010 -
1!
1#
#1500
0!
0#
#1510
b10111000001111010100111000100 %
b1011111100000110 4
b1101 .
b111111011000110 3
b1011111100000110 ,
b101111110000011 +
b101111110000011 "
b101111110000011 (
b101111110000011 -
b1011100000111101010011100010000 6
b1011100000111101010011100010000 '
b1100 2
b11111101100011 /
b11111101100011 &
1!
1#
#1520
0!
0#
#1530
b10111101001100010110010101001 %
b1110 .
b1000000011001000 3
b1100000100001000 4
b1000000011001000 ,
b100000001100100 +
b1101 2
b100000001100100 /
b100000001100100 &
b1011110100110001011001010100100 6
b1011110100110001011001010100100 '
b110000010000100 "
b110000010000100 (
b110000010000100 -
1!
1#
#1540
0!
0#
#1550
b11000010001101011001110010000 %
b1100001100001010 4
b1111 .
b1000001011001010 3
b1100001100001010 ,
b110000110000101 +
b110000110000101 "
b110000110000101 (
b110000110000101 -
b1100001000110101100111001000000 6
b1100001000110101100111001000000 '
b1110 2
b100000101100101 /
b100000101100101 &
1!
1#
#1560
0!
0#
#1570
b11000111010010011111001111001 %
b10000 .
b1000010011001100 3
b1100010100001100 4
b1000010011001100 ,
b100001001100110 +
b1111 2
b100001001100110 /
b100001001100110 &
b1100011101001001111100111100100 6
b1100011101001001111100111100100 '
b110001010000110 "
b110001010000110 (
b110001010000110 -
1!
1#
#1580
0!
0#
#1590
b11001100011011100110101100100 %
b1100011100001110 4
b10001 .
b1000011011001110 3
b1100011100001110 ,
b110001110000111 +
b110001110000111 "
b110001110000111 (
b110001110000111 -
b1100110001101110011010110010000 6
b1100110001101110011010110010000 '
b10000 2
b100001101100111 /
b100001101100111 &
1!
1#
#1600
0!
0#
#1610
b11010001101000110000001010001 %
b10010 .
b1000100011010000 3
b1100100100010000 4
b1000100011010000 ,
b100010001101000 +
b10001 2
b100010001101000 /
b100010001101000 &
b1101000110100011000000101000100 6
b1101000110100011000000101000100 '
b110010010001000 "
b110010010001000 (
b110010010001000 -
1!
1#
#1620
0!
0#
#1630
b11010110111001111011101000000 %
b1100101100010010 4
b10011 .
b1000101011010010 3
b1100101100010010 ,
b110010110001001 +
b110010110001001 "
b110010110001001 (
b110010110001001 -
b1101011011100111101110100000000 6
b1101011011100111101110100000000 '
b10010 2
b100010101101001 /
b100010101101001 &
1!
1#
#1640
0!
0#
#1650
b11011100001111001001000110001 %
b10100 .
b1000110011010100 3
b1100110100010100 4
b1000110011010100 ,
b100011001101010 +
b10011 2
b100011001101010 /
b100011001101010 &
b1101110000111100100100011000100 6
b1101110000111100100100011000100 '
b110011010001010 "
b110011010001010 (
b110011010001010 -
1!
1#
#1660
0!
0#
#1670
b11100001101000011000100100100 %
b1100111100010110 4
b10101 .
b1000111011010110 3
b1100111100010110 ,
b110011110001011 +
b110011110001011 "
b110011110001011 (
b110011110001011 -
b1110000110100001100010010010000 6
b1110000110100001100010010010000 '
b10100 2
b100011101101011 /
b100011101101011 &
1!
1#
#1680
0!
0#
#1690
b11100111000101101010000011001 %
b10110 .
b1001000011011000 3
b1101000100011000 4
b1001000011011000 ,
b100100001101100 +
b10101 2
b100100001101100 /
b100100001101100 &
b1110011100010110101000001100100 6
b1110011100010110101000001100100 '
b110100010001100 "
b110100010001100 (
b110100010001100 -
1!
1#
#1700
0!
0#
#1710
b11101100100110111101100010000 %
b1101001100011010 4
b10111 .
b1001001011011010 3
b1101001100011010 ,
b110100110001101 +
b110100110001101 "
b110100110001101 (
b110100110001101 -
b1110110010011011110110001000000 6
b1110110010011011110110001000000 '
b10110 2
b100100101101101 /
b100100101101101 &
1!
1#
#1720
0!
0#
#1730
b11110010001100010011000001001 %
b11000 .
b1001010011011100 3
b1101010100011100 4
b1001010011011100 ,
b100101001101110 +
b10111 2
b100101001101110 /
b100101001101110 &
b1111001000110001001100000100100 6
b1111001000110001001100000100100 '
b110101010001110 "
b110101010001110 (
b110101010001110 -
1!
1#
#1740
0!
0#
#1750
b11110111110101101010100000100 %
b1101011100011110 4
b11001 .
b1001011011011110 3
b1101011100011110 ,
b110101110001111 +
b110101110001111 "
b110101110001111 (
b110101110001111 -
b1111011111010110101010000010000 6
b1111011111010110101010000010000 '
b11000 2
b100101101101111 /
b100101101101111 &
1!
1#
#1760
0!
0#
#1770
b11111101100011000100000000001 %
b11010 .
b1001100011100000 3
b1101100100100000 4
b1001100011100000 ,
b100110001110000 +
b11001 2
b100110001110000 /
b100110001110000 &
b1111110110001100010000000000100 6
b1111110110001100010000000000100 '
b110110010010000 "
b110110010010000 (
b110110010010000 -
1!
1#
#1780
0!
0#
#1790
b100000011010100011111100000000 %
b1101101100100010 4
b11011 .
b1001101011100010 3
b1101101100100010 ,
b110110110010001 +
b110110110010001 "
b110110110010001 (
b110110110010001 -
b10000001101010001111110000000000 6
b10000001101010001111110000000000 '
b11010 2
b100110101110001 /
b100110101110001 &
1!
1#
#1800
0!
0#
#1810
b100001001001001111101000000001 %
b11100 .
b1001110011100100 3
b1101110100100100 4
b1001110011100100 ,
b100111001110010 +
b11011 2
b100111001110010 /
b100111001110010 &
b10000100100100111110100000000100 6
b10000100100100111110100000000100 '
b110111010010010 "
b110111010010010 (
b110111010010010 -
1!
1#
#1820
0!
0#
#1830
b100001111000011011100100000100 %
b1101111100100110 4
b11101 .
b1001111011100110 3
b1101111100100110 ,
b110111110010011 +
b110111110010011 "
b110111110010011 (
b110111110010011 -
b10000111100001101110010000010000 6
b10000111100001101110010000010000 '
b11100 2
b100111101110011 /
b100111101110011 &
1!
1#
#1840
0!
0#
#1850
b100010101000000111110000001001 %
b11110 .
b1010000011101000 3
b1110000100101000 4
b1010000011101000 ,
b101000001110100 +
b11101 2
b101000001110100 /
b101000001110100 &
b10001010100000011111000000100100 6
b10001010100000011111000000100100 '
b111000010010100 "
b111000010010100 (
b111000010010100 -
1!
1#
#1860
0!
0#
#1870
b100011011000010100001100010000 %
b1110001100101010 4
b11111 .
b1010001011101010 3
b1110001100101010 ,
b111000110010101 +
b111000110010101 "
b111000110010101 (
b111000110010101 -
b10001101100001010000110001000000 6
b10001101100001010000110001000000 '
b11110 2
b101000101110101 /
b101000101110101 &
1!
1#
#1880
0!
0#
#1890
b100100001001000000111000011001 %
b0 .
b1010010011101100 3
b1110010100101100 4
b1010010011101100 ,
b101001001110110 +
b11111 2
b101001001110110 /
b101001001110110 &
b10010000100100000011100001100100 6
b10010000100100000011100001100100 '
b111001010010110 "
b111001010010110 (
b111001010010110 -
1!
1#
#1900
0!
0#
#1910
b100100111010001101110100100100 %
b1110011100101110 4
b1 .
b1010011011101110 3
b1110011100101110 ,
b111001110010111 +
b111001110010111 "
b111001110010111 (
b111001110010111 -
b10010011101000110111010010010000 6
b10010011101000110111010010010000 '
b0 2
b101001101110111 /
b101001101110111 &
1!
1#
#1920
0!
0#
#1930
b100101101011111011000000110001 %
b10 .
b1010100011110000 3
b1110100100110000 4
b1010100011110000 ,
b101010001111000 +
b1 2
b101010001111000 /
b101010001111000 &
b10010110101111101100000011000100 6
b10010110101111101100000011000100 '
b111010010011000 "
b111010010011000 (
b111010010011000 -
1!
1#
#1940
0!
0#
#1950
b100110011110001000011101000000 %
b1110101100110010 4
b11 .
b1010101011110010 3
b1110101100110010 ,
b111010110011001 +
b111010110011001 "
b111010110011001 (
b111010110011001 -
b10011001111000100001110100000000 6
b10011001111000100001110100000000 '
b10 2
b101010101111001 /
b101010101111001 &
1!
1#
#1960
0!
0#
#1970
b100111010000110110001001010001 %
b100 .
b1010110011110100 3
b1110110100110100 4
b1010110011110100 ,
b101011001111010 +
b11 2
b101011001111010 /
b101011001111010 &
b10011101000011011000100101000100 6
b10011101000011011000100101000100 '
b111011010011010 "
b111011010011010 (
b111011010011010 -
1!
1#
#1980
0!
0#
#1990
b101000000100000100000101100100 %
b1110111100110110 4
b101 .
b1010111011110110 3
b1110111100110110 ,
b111011110011011 +
b111011110011011 "
b111011110011011 (
b111011110011011 -
b10100000010000010000010110010000 6
b10100000010000010000010110010000 '
b100 2
b101011101111011 /
b101011101111011 &
1!
1#
#2000
0!
0#
#2010
b101000110111110010010001111001 %
b110 .
b1011000011111000 3
b1111000100111000 4
b1011000011111000 ,
b101100001111100 +
b101 2
b101100001111100 /
b101100001111100 &
b10100011011111001001000111100100 6
b10100011011111001001000111100100 '
b111100010011100 "
b111100010011100 (
b111100010011100 -
1!
1#
#2020
0!
0#
#2030
b101001101100000000101110010000 %
b1111001100111010 4
b111 .
b1011001011111010 3
b1111001100111010 ,
b111100110011101 +
b111100110011101 "
b111100110011101 (
b111100110011101 -
b10100110110000000010111001000000 6
b10100110110000000010111001000000 '
b110 2
b101100101111101 /
b101100101111101 &
1!
1#
#2040
0!
0#
#2050
b101010100000101111011010101001 %
b1000 .
b1011010011111100 3
b1111010100111100 4
b1011010011111100 ,
b101101001111110 +
b111 2
b101101001111110 /
b101101001111110 &
b10101010000010111101101010100100 6
b10101010000010111101101010100100 '
b111101010011110 "
b111101010011110 (
b111101010011110 -
1!
1#
#2060
0!
0#
#2070
b101011010101111110010111000100 %
b1111011100111110 4
b1001 .
b1011011011111110 3
b1111011100111110 ,
b111101110011111 +
b111101110011111 "
b111101110011111 (
b111101110011111 -
b10101101010111111001011100010000 6
b10101101010111111001011100010000 '
b1000 2
b101101101111111 /
b101101101111111 &
1!
1#
#2080
0!
0#
