fpga/usrp2/autoc/power_trig_my.vcd
$date
	Fri Mar 15 12:47:38 2013
$end
$version
	Icarus Verilog
$end
$timescale
	1s
$end
$scope module power_trig_my_tb $end
$var wire 32 ! sample_out [31:0] $end
$var wire 1 " strobe_out $end
$var reg 1 # clk $end
$var reg 1 $ rst $end
$var reg 1 % run $end
$var reg 32 & sample_in [31:0] $end
$var reg 1 ' set_stb $end
$var reg 1 ( strobe_in $end
$scope module power_trig_my $end
$var wire 32 ) bb_sample [31:0] $end
$var wire 1 " bb_strobe $end
$var wire 1 * clear $end
$var wire 1 + clock $end
$var wire 24 , ddc_in_i [23:0] $end
$var wire 24 - ddc_in_q [23:0] $end
$var wire 1 . ddc_out_enable $end
$var wire 32 / ddc_out_sample [31:0] $end
$var wire 1 0 ddc_out_strobe $end
$var wire 32 1 delayed_sample [31:0] $end
$var wire 1 2 enable $end
$var wire 24 3 frontend_i [23:0] $end
$var wire 24 4 frontend_q [23:0] $end
$var wire 18 5 mult_in [17:0] $end
$var wire 36 6 prod [35:0] $end
$var wire 9 7 rd_addr [8:0] $end
$var wire 1 8 reset $end
$var wire 8 9 set_addr [7:0] $end
$var wire 32 : set_data [31:0] $end
$var wire 1 ; set_stb $end
$var wire 32 < thresh [31:0] $end
$var wire 1 = trigger $end
$var reg 1 > stb_d1 $end
$var reg 1 ? stb_d2 $end
$var reg 32 @ sum [31:0] $end
$var reg 1 A triggerable $end
$var reg 1 B triggered $end
$var reg 9 C wr_addr [8:0] $end
$scope module sr_0 $end
$var wire 8 D addr [7:0] $end
$var wire 1 + clk $end
$var wire 32 E in [31:0] $end
$var wire 1 8 rst $end
$var wire 1 ; strobe $end
$var reg 1 F changed $end
$var reg 32 G out [31:0] $end
$upscope $end
$scope module delay_line $end
$var wire 9 H addra [8:0] $end
$var wire 9 I addrb [8:0] $end
$var wire 1 + clka $end
$var wire 1 + clkb $end
$var wire 32 J dia [31:0] $end
$var wire 32 K dib [31:0] $end
$var wire 1 L ena $end
$var wire 1 0 enb $end
$var wire 1 0 wea $end
$var wire 1 M web $end
$var reg 32 N doa [31:0] $end
$var reg 32 O dob [31:0] $end
$var integer 32 P i [31:0] $end
$upscope $end
$scope module mult $end
$var wire 18 Q A [17:0] $end
$var wire 18 R B [17:0] $end
$var wire 1 + C $end
$var wire 1 S CE $end
$var wire 1 8 R $end
$var reg 36 T P [35:0] $end
$upscope $end
$upscope $end
$upscope $end
$enddefinitions $end
#0
$dumpvars
bx T
xS
b0x1000000000 R
b0x1000000000 Q
b1000000000 P
bx O
bx N
0M
1L
b1111111111111111 K
b1000000000000001100000000 J
bx I
bx H
bx G
xF
b1000011000000000000 E
b0 D
bx C
xB
xA
bx @
x?
x>
x=
bx <
0;
b1000011000000000000 :
b0 9
18
bx 7
bx 6
b0x1000000000 5
bz 4
bz 3
12
bx 1
x0
b1000000000000001100000000 /
1.
bz -
bz ,
0+
z*
bx )
x(
0'
b1000000000000001100000000 &
0%
1$
0#
x"
bx !
$end
#10
b1 7
b1 I
0"
0F
b0 G
b0 <
b0 T
b0 6
b0 C
b0 H
0A
0B
0(
00
1#
1+
#20
0#
0+
#30
b1000000010 5
b1000000010 Q
b1000000010 R
0S
b1000000010000001100000001 &
b1000000010000001100000001 /
b1000000010000001100000001 J
0>
b0 N
1#
1+
#40
0#
0+
#50
b1000000100 5
b1000000100 Q
b1000000100 R
0?
b1000000100000001100000010 &
b1000000100000001100000010 /
b1000000100000001100000010 J
1#
1+
#60
0#
0+
#70
b1000000110 5
b1000000110 Q
b1000000110 R
b1000000110000001100000011 &
b1000000110000001100000011 /
b1000000110000001100000011 J
1#
1+
#80
0#
0+
#90
b1000001000 5
b1000001000 Q
b1000001000 R
b1000001000000001100000100 &
b1000001000000001100000100 /
b1000001000000001100000100 J
1#
1+
#100
0#
0+
0$
08
#110
b1000001010 5
b1000001010 Q
b1000001010 R
b1000001010000001100000101 &
b1000001010000001100000101 /
b1000001010000001100000101 J
1#
1+
#120
0#
0+
#130
b1000001100 5
b1000001100 Q
b1000001100 R
b1000001100000001100000110 &
b1000001100000001100000110 /
b1000001100000001100000110 J
1#
1+
#140
0#
0+
#150
b1000001110 5
b1000001110 Q
b1000001110 R
b1000001110000001100000111 &
b1000001110000001100000111 /
b1000001110000001100000111 J
1#
1+
#160
0#
0+
#170
b1000010000 5
b1000010000 Q
b1000010000 R
b1000010000000001100001000 &
b1000010000000001100001000 /
b1000010000000001100001000 J
1#
1+
#180
0#
0+
#190
b1000010010 5
b1000010010 Q
b1000010010 R
b1000010010000001100001001 &
b1000010010000001100001001 /
b1000010010000001100001001 J
1#
1+
#200
0#
0+
#210
b1000010100 5
b1000010100 Q
b1000010100 R
b1000010100000001100001010 &
b1000010100000001100001010 /
b1000010100000001100001010 J
1#
1+
#220
0#
0+
#230
b1000010110 5
b1000010110 Q
b1000010110 R
b1000010110000001100001011 &
b1000010110000001100001011 /
b1000010110000001100001011 J
1#
1+
#240
0#
0+
#250
b1000011000 5
b1000011000 Q
b1000011000 R
b1000011000000001100001100 &
b1000011000000001100001100 /
b1000011000000001100001100 J
1#
1+
#260
0#
0+
#270
b1000011010 5
b1000011010 Q
b1000011010 R
b1000011010000001100001101 &
b1000011010000001100001101 /
b1000011010000001100001101 J
1#
1+
#280
0#
0+
#290
b1000011100 5
b1000011100 Q
b1000011100 R
b1000011100000001100001110 &
b1000011100000001100001110 /
b1000011100000001100001110 J
1#
1+
#300
0#
0+
#310
b1000011110 5
b1000011110 Q
b1000011110 R
b1000011110000001100001111 &
b1000011110000001100001111 /
b1000011110000001100001111 J
1#
1+
#320
0#
0+
#330
b1000100000 5
b1000100000 Q
b1000100000 R
b1000100000000001100010000 &
b1000100000000001100010000 /
b1000100000000001100010000 J
1#
1+
#340
0#
0+
#350
b1000100010 5
b1000100010 Q
b1000100010 R
b1000100010000001100010001 &
b1000100010000001100010001 /
b1000100010000001100010001 J
1#
1+
#360
0#
0+
#370
b1000100100 5
b1000100100 Q
b1000100100 R
b1000100100000001100010010 &
b1000100100000001100010010 /
b1000100100000001100010010 J
1#
1+
#380
0#
0+
#390
b1000100110 5
b1000100110 Q
b1000100110 R
b1000100110000001100010011 &
b1000100110000001100010011 /
b1000100110000001100010011 J
1#
1+
#400
0#
0+
#410
b1000101000 5
b1000101000 Q
b1000101000 R
b1000101000000001100010100 &
b1000101000000001100010100 /
b1000101000000001100010100 J
1#
1+
#420
0#
0+
#430
b1000101010 5
b1000101010 Q
b1000101010 R
b1000101010000001100010101 &
b1000101010000001100010101 /
b1000101010000001100010101 J
1#
1+
#440
0#
0+
#450
b1000101100 5
b1000101100 Q
b1000101100 R
b1000101100000001100010110 &
b1000101100000001100010110 /
b1000101100000001100010110 J
1#
1+
#460
0#
0+
#470
b1000101110 5
b1000101110 Q
b1000101110 R
b1000101110000001100010111 &
b1000101110000001100010111 /
b1000101110000001100010111 J
1#
1+
#480
0#
0+
#490
b1000110000 5
b1000110000 Q
b1000110000 R
b1000110000000001100011000 &
b1000110000000001100011000 /
b1000110000000001100011000 J
1#
1+
#500
0#
0+
#510
b1000110010 5
b1000110010 Q
b1000110010 R
b1000110010000001100011001 &
b1000110010000001100011001 /
b1000110010000001100011001 J
1#
1+
#520
0#
0+
#530
b1000110100 5
b1000110100 Q
b1000110100 R
b1000110100000001100011010 &
b1000110100000001100011010 /
b1000110100000001100011010 J
1#
1+
#540
0#
0+
#550
b1000110110 5
b1000110110 Q
b1000110110 R
b1000110110000001100011011 &
b1000110110000001100011011 /
b1000110110000001100011011 J
1#
1+
#560
0#
0+
#570
b1000111000 5
b1000111000 Q
b1000111000 R
b1000111000000001100011100 &
b1000111000000001100011100 /
b1000111000000001100011100 J
1#
1+
#580
0#
0+
#590
b1000111010 5
b1000111010 Q
b1000111010 R
b1000111010000001100011101 &
b1000111010000001100011101 /
b1000111010000001100011101 J
1#
1+
#600
0#
0+
#610
b1000111100 5
b1000111100 Q
b1000111100 R
b1000111100000001100011110 &
b1000111100000001100011110 /
b1000111100000001100011110 J
1#
1+
#620
0#
0+
#630
b1000111110 5
b1000111110 Q
b1000111110 R
b1000111110000001100011111 &
b1000111110000001100011111 /
b1000111110000001100011111 J
1#
1+
#640
0#
0+
#650
b1001000000 5
b1001000000 Q
b1001000000 R
b1001000000000001100100000 &
b1001000000000001100100000 /
b1001000000000001100100000 J
1#
1+
#660
0#
0+
#670
b1001000010 5
b1001000010 Q
b1001000010 R
b1001000010000001100100001 &
b1001000010000001100100001 /
b1001000010000001100100001 J
1#
1+
#680
0#
0+
#690
b1001000100 5
b1001000100 Q
b1001000100 R
b1001000100000001100100010 &
b1001000100000001100100010 /
b1001000100000001100100010 J
1#
1+
#700
0#
0+
#710
b1001000110 5
b1001000110 Q
b1001000110 R
b1001000110000001100100011 &
b1001000110000001100100011 /
b1001000110000001100100011 J
1#
1+
#720
0#
0+
#730
b1001001000 5
b1001001000 Q
b1001001000 R
b1001001000000001100100100 &
b1001001000000001100100100 /
b1001001000000001100100100 J
1#
1+
#740
0#
0+
#750
b1001001010 5
b1001001010 Q
b1001001010 R
b1001001010000001100100101 &
b1001001010000001100100101 /
b1001001010000001100100101 J
1#
1+
#760
0#
0+
#770
b1001001100 5
b1001001100 Q
b1001001100 R
b1001001100000001100100110 &
b1001001100000001100100110 /
b1001001100000001100100110 J
1#
1+
#780
0#
0+
#790
b1001001110 5
b1001001110 Q
b1001001110 R
b1001001110000001100100111 &
b1001001110000001100100111 /
b1001001110000001100100111 J
1#
1+
#800
0#
0+
1'
1;
#810
b1001010000 5
b1001010000 Q
b1001010000 R
1F
b1000011000000000000 G
b1000011000000000000 <
b1001010000000001100101000 &
b1001010000000001100101000 /
b1001010000000001100101000 J
1#
1+
#820
0#
0+
#830
b1001010010 5
b1001010010 Q
b1001010010 R
b1001010010000001100101001 &
b1001010010000001100101001 /
b1001010010000001100101001 J
1#
1+
#840
0#
0+
#850
b1001010100 5
b1001010100 Q
b1001010100 R
b1001010100000001100101010 &
b1001010100000001100101010 /
b1001010100000001100101010 J
1#
1+
#860
0#
0+
#870
b1001010110 5
b1001010110 Q
b1001010110 R
b1001010110000001100101011 &
b1001010110000001100101011 /
b1001010110000001100101011 J
1#
1+
#880
0#
0+
#890
b1001011000 5
b1001011000 Q
b1001011000 R
b1001011000000001100101100 &
b1001011000000001100101100 /
b1001011000000001100101100 J
1#
1+
#900
0#
0+
#910
b1001011010 5
b1001011010 Q
b1001011010 R
b1001011010000001100101101 &
b1001011010000001100101101 /
b1001011010000001100101101 J
1#
1+
#920
0#
0+
#930
b1001011100 5
b1001011100 Q
b1001011100 R
b1001011100000001100101110 &
b1001011100000001100101110 /
b1001011100000001100101110 J
1#
1+
#940
0#
0+
#950
b1001011110 5
b1001011110 Q
b1001011110 R
b1001011110000001100101111 &
b1001011110000001100101111 /
b1001011110000001100101111 J
1#
1+
#960
0#
0+
#970
b1001100000 5
b1001100000 Q
b1001100000 R
b1001100000000001100110000 &
b1001100000000001100110000 /
b1001100000000001100110000 J
1#
1+
#980
0#
0+
#990
b1001100010 5
b1001100010 Q
b1001100010 R
b1001100010000001100110001 &
b1001100010000001100110001 /
b1001100010000001100110001 J
1#
1+
#1000
0#
0+
#1010
b1001100100 5
b1001100100 Q
b1001100100 R
b1001100100000001100110010 &
b1001100100000001100110010 /
b1001100100000001100110010 J
1#
1+
#1020
0#
0+
#1030
b1001100110 5
b1001100110 Q
b1001100110 R
b1001100110000001100110011 &
b1001100110000001100110011 /
b1001100110000001100110011 J
1#
1+
#1040
0#
0+
#1050
b1001101000 5
b1001101000 Q
b1001101000 R
b1001101000000001100110100 &
b1001101000000001100110100 /
b1001101000000001100110100 J
1#
1+
#1060
0#
0+
#1070
b1001101010 5
b1001101010 Q
b1001101010 R
b1001101010000001100110101 &
b1001101010000001100110101 /
b1001101010000001100110101 J
1#
1+
#1080
0#
0+
#1090
b1001101100 5
b1001101100 Q
b1001101100 R
b1001101100000001100110110 &
b1001101100000001100110110 /
b1001101100000001100110110 J
1#
1+
#1100
0#
0+
#1110
b1001101110 5
b1001101110 Q
b1001101110 R
b1001101110000001100110111 &
b1001101110000001100110111 /
b1001101110000001100110111 J
1#
1+
#1120
0#
0+
#1130
b1001110000 5
b1001110000 Q
b1001110000 R
b1001110000000001100111000 &
b1001110000000001100111000 /
b1001110000000001100111000 J
1#
1+
#1140
0#
0+
#1150
b1001110010 5
b1001110010 Q
b1001110010 R
b1001110010000001100111001 &
b1001110010000001100111001 /
b1001110010000001100111001 J
1#
1+
#1160
0#
0+
#1170
b1001110100 5
b1001110100 Q
b1001110100 R
b1001110100000001100111010 &
b1001110100000001100111010 /
b1001110100000001100111010 J
1#
1+
#1180
0#
0+
#1190
b1001110110 5
b1001110110 Q
b1001110110 R
b1001110110000001100111011 &
b1001110110000001100111011 /
b1001110110000001100111011 J
1#
1+
#1200
0#
0+
#1210
b1001111000 5
b1001111000 Q
b1001111000 R
b1001111000000001100111100 &
b1001111000000001100111100 /
b1001111000000001100111100 J
1#
1+
#1220
0#
0+
#1230
b1001111010 5
b1001111010 Q
b1001111010 R
b1001111010000001100111101 &
b1001111010000001100111101 /
b1001111010000001100111101 J
1#
1+
#1240
0#
0+
#1250
b1001111100 5
b1001111100 Q
b1001111100 R
b1001111100000001100111110 &
b1001111100000001100111110 /
b1001111100000001100111110 J
1#
1+
#1260
0#
0+
#1270
b1001111110 5
b1001111110 Q
b1001111110 R
b1001111110000001100111111 &
b1001111110000001100111111 /
b1001111110000001100111111 J
1#
1+
#1280
0#
0+
#1290
b1010000000 5
b1010000000 Q
b1010000000 R
b1010000000000001101000000 &
b1010000000000001101000000 /
b1010000000000001101000000 J
1#
1+
#1300
0#
0+
#1310
b1010000010 5
b1010000010 Q
b1010000010 R
b1010000010000001101000001 &
b1010000010000001101000001 /
b1010000010000001101000001 J
1#
1+
#1320
0#
0+
#1330
b1010000100 5
b1010000100 Q
b1010000100 R
b1010000100000001101000010 &
b1010000100000001101000010 /
b1010000100000001101000010 J
1#
1+
#1340
0#
0+
#1350
b1010000110 5
b1010000110 Q
b1010000110 R
b1010000110000001101000011 &
b1010000110000001101000011 /
b1010000110000001101000011 J
1#
1+
#1360
0#
0+
#1370
b1010001000 5
b1010001000 Q
b1010001000 R
b1010001000000001101000100 &
b1010001000000001101000100 /
b1010001000000001101000100 J
1#
1+
#1380
0#
0+
#1390
b1010001010 5
b1010001010 Q
b1010001010 R
b1010001010000001101000101 &
b1010001010000001101000101 /
b1010001010000001101000101 J
1#
1+
#1400
0#
0+
#1410
b1010001100 5
b1010001100 Q
b1010001100 R
b1010001100000001101000110 &
b1010001100000001101000110 /
b1010001100000001101000110 J
1#
1+
#1420
0#
0+
#1430
b1010001110 5
b1010001110 Q
b1010001110 R
b1010001110000001101000111 &
b1010001110000001101000111 /
b1010001110000001101000111 J
1#
1+
#1440
0#
0+
#1450
b1010010000 5
b1010010000 Q
b1010010000 R
b1010010000000001101001000 &
b1010010000000001101001000 /
b1010010000000001101001000 J
1#
1+
#1460
0#
0+
#1470
b1010010010 5
b1010010010 Q
b1010010010 R
b1010010010000001101001001 &
b1010010010000001101001001 /
b1010010010000001101001001 J
1#
1+
#1480
0#
0+
#1490
b1010010100 5
b1010010100 Q
b1010010100 R
b1010010100000001101001010 &
b1010010100000001101001010 /
b1010010100000001101001010 J
1#
1+
#1500
0#
0+
#1510
b1010010110 5
b1010010110 Q
b1010010110 R
b1010010110000001101001011 &
b1010010110000001101001011 /
b1010010110000001101001011 J
1#
1+
#1520
0#
0+
#1530
b1010011000 5
b1010011000 Q
b1010011000 R
b1010011000000001101001100 &
b1010011000000001101001100 /
b1010011000000001101001100 J
1#
1+
#1540
0#
0+
#1550
b1010011010 5
b1010011010 Q
b1010011010 R
b1010011010000001101001101 &
b1010011010000001101001101 /
b1010011010000001101001101 J
1#
1+
#1560
0#
0+
#1570
b1010011100 5
b1010011100 Q
b1010011100 R
b1010011100000001101001110 &
b1010011100000001101001110 /
b1010011100000001101001110 J
1#
1+
#1580
0#
0+
#1590
b1010011110 5
b1010011110 Q
b1010011110 R
b1010011110000001101001111 &
b1010011110000001101001111 /
b1010011110000001101001111 J
1#
1+
#1600
0#
0+
#1610
b1010100000 5
b1010100000 Q
b1010100000 R
b1010100000000001101010000 &
b1010100000000001101010000 /
b1010100000000001101010000 J
1#
1+
#1620
0#
0+
#1630
b1010100010 5
b1010100010 Q
b1010100010 R
b1010100010000001101010001 &
b1010100010000001101010001 /
b1010100010000001101010001 J
1#
1+
#1640
0#
0+
#1650
b1010100100 5
b1010100100 Q
b1010100100 R
b1010100100000001101010010 &
b1010100100000001101010010 /
b1010100100000001101010010 J
1#
1+
#1660
0#
0+
#1670
b1010100110 5
b1010100110 Q
b1010100110 R
b1010100110000001101010011 &
b1010100110000001101010011 /
b1010100110000001101010011 J
1#
1+
#1680
0#
0+
#1690
b1010101000 5
b1010101000 Q
b1010101000 R
b1010101000000001101010100 &
b1010101000000001101010100 /
b1010101000000001101010100 J
1#
1+
#1700
0#
0+
#1710
b1010101010 5
b1010101010 Q
b1010101010 R
b1010101010000001101010101 &
b1010101010000001101010101 /
b1010101010000001101010101 J
1#
1+
#1720
0#
0+
#1730
b1010101100 5
b1010101100 Q
b1010101100 R
b1010101100000001101010110 &
b1010101100000001101010110 /
b1010101100000001101010110 J
1#
1+
#1740
0#
0+
#1750
b1010101110 5
b1010101110 Q
b1010101110 R
b1010101110000001101010111 &
b1010101110000001101010111 /
b1010101110000001101010111 J
1#
1+
#1760
0#
0+
#1770
b1010110000 5
b1010110000 Q
b1010110000 R
b1010110000000001101011000 &
b1010110000000001101011000 /
b1010110000000001101011000 J
1#
1+
#1780
0#
0+
#1790
b1010110010 5
b1010110010 Q
b1010110010 R
b1010110010000001101011001 &
b1010110010000001101011001 /
b1010110010000001101011001 J
1#
1+
#1800
0#
0+
#1810
b1010110100 5
b1010110100 Q
b1010110100 R
b1010110100000001101011010 &
b1010110100000001101011010 /
b1010110100000001101011010 J
1#
1+
#1820
0#
0+
#1830
b1010110110 5
b1010110110 Q
b1010110110 R
b1010110110000001101011011 &
b1010110110000001101011011 /
b1010110110000001101011011 J
1#
1+
#1840
0#
0+
#1850
b1010111000 5
b1010111000 Q
b1010111000 R
b1010111000000001101011100 &
b1010111000000001101011100 /
b1010111000000001101011100 J
1#
1+
#1860
0#
0+
#1870
b1010111010 5
b1010111010 Q
b1010111010 R
b1010111010000001101011101 &
b1010111010000001101011101 /
b1010111010000001101011101 J
1#
1+
#1880
0#
0+
#1890
b1010111100 5
b1010111100 Q
b1010111100 R
b1010111100000001101011110 &
b1010111100000001101011110 /
b1010111100000001101011110 J
1#
1+
#1900
0#
0+
#1910
b1010111110 5
b1010111110 Q
b1010111110 R
b1010111110000001101011111 &
b1010111110000001101011111 /
b1010111110000001101011111 J
1#
1+
#1920
0#
0+
#1930
b1011000000 5
b1011000000 Q
b1011000000 R
b1011000000000001101100000 &
b1011000000000001101100000 /
b1011000000000001101100000 J
1#
1+
#1940
0#
0+
#1950
b1011000010 5
b1011000010 Q
b1011000010 R
b1011000010000001101100001 &
b1011000010000001101100001 /
b1011000010000001101100001 J
1#
1+
#1960
0#
0+
#1970
b1011000100 5
b1011000100 Q
b1011000100 R
b1011000100000001101100010 &
b1011000100000001101100010 /
b1011000100000001101100010 J
1#
1+
#1980
0#
0+
#1990
b1011000110 5
b1011000110 Q
b1011000110 R
b1011000110000001101100011 &
b1011000110000001101100011 /
b1011000110000001101100011 J
1#
1+
#2000
0#
0+
1%
#2010
b1011001000 5
b1011001000 Q
b1011001000 R
1S
b1011001000000001101100100 &
b1011001000000001101100100 /
b1011001000000001101100100 J
1(
10
1#
1+
#2020
0#
0+
#2030
b11011001000 5
b11011001000 Q
b11011001000 R
b10 7
b10 I
0(
00
1>
b1 C
b1 H
b1111011110001000000 T
b1111011110001000000 6
b0 O
b0 1
b0 !
b0 )
1#
1+
#2040
0#
0+
#2050
b1011001010 5
b1011001010 Q
b1011001010 R
b1011011111110001000000 T
b1011011111110001000000 6
0>
1?
b111101111000100 @
0=
b1011001010000001101100101 &
b1011001010000001101100101 /
b1011001010000001101100101 J
1(
10
1#
1+
#2060
0#
0+
#2070
b11011001010 5
b11011001010 Q
b11011001010 R
b11 7
b11 I
0(
00
b110101101110001000 @
0?
1>
b10 C
b10 H
b1111100011101100100 T
b1111100011101100100 6
1#
1+
#2080
0#
0+
#2090
b1011001100 5
b1011001100 Q
b1011001100 R
b1011100001011101100100 T
b1011100001011101100100 6
0>
1?
b111110001110110 @
b1011001100000001101100110 &
b1011001100000001101100110 /
b1011001100000001101100110 J
1(
10
1#
1+
#2100
0#
0+
#2110
b11011001100 5
b11011001100 Q
b11011001100 R
b100 7
b100 I
0(
00
b110101110111101100 @
0?
1>
b11 C
b11 H
b1111101001010010000 T
b1111101001010010000 6
1#
1+
#2120
0#
0+
#2130
b1011001110 5
b1011001110 Q
b1011001110 R
b1011100011001010010000 T
b1011100011001010010000 6
0>
1?
b111110100101001 @
b1011001110000001101100111 &
b1011001110000001101100111 /
b1011001110000001101100111 J
1(
10
1#
1+
#2140
0#
0+
#2150
b11011001110 5
b11011001110 Q
b11011001110 R
b101 7
b101 I
0(
00
b110110000001010010 @
0?
1>
b100 C
b100 H
b1111101110111000100 T
b1111101110111000100 6
1#
1+
#2160
0#
0+
#2170
b1011010000 5
b1011010000 Q
b1011010000 R
b1011100100110111000100 T
b1011100100110111000100 6
0>
1?
b111110111011100 @
b1011010000000001101101000 &
b1011010000000001101101000 /
b1011010000000001101101000 J
1(
10
1#
1+
#2180
0#
0+
#2190
b11011010000 5
b11011010000 Q
b11011010000 R
b110 7
b110 I
0(
00
b110110001010111000 @
0?
1>
b101 C
b101 H
b1111110100100000000 T
b1111110100100000000 6
1#
1+
#2200
0#
0+
#2210
b1011010010 5
b1011010010 Q
b1011010010 R
b1011100110100100000000 T
b1011100110100100000000 6
0>
1?
b111111010010000 @
b1011010010000001101101001 &
b1011010010000001101101001 /
b1011010010000001101101001 J
1(
10
1#
1+
#2220
0#
0+
#2230
b11011010010 5
b11011010010 Q
b11011010010 R
b111 7
b111 I
0(
00
b110110010100100000 @
0?
1>
b110 C
b110 H
b1111111010001000100 T
b1111111010001000100 6
1#
1+
#2240
0#
0+
#2250
b1011010100 5
b1011010100 Q
b1011010100 R
b1011101000010001000100 T
b1011101000010001000100 6
0>
1?
b111111101000100 @
b1011010100000001101101010 &
b1011010100000001101101010 /
b1011010100000001101101010 J
1(
10
1#
1+
#2260
0#
0+
#2270
b11011010100 5
b11011010100 Q
b11011010100 R
b1000 7
b1000 I
0(
00
b110110011110001000 @
0?
1>
b111 C
b111 H
b1111111111110010000 T
b1111111111110010000 6
1#
1+
#2280
0#
0+
#2290
b1011010110 5
b1011010110 Q
b1011010110 R
b1011101001111110010000 T
b1011101001111110010000 6
0>
1?
b111111111111001 @
b1011010110000001101101011 &
b1011010110000001101101011 /
b1011010110000001101101011 J
1(
10
1#
1+
#2300
0#
0+
#2310
b11011010110 5
b11011010110 Q
b11011010110 R
b1001 7
b1001 I
0(
00
b110110100111110010 @
0?
1>
b1000 C
b1000 H
b10000000101011100100 T
b10000000101011100100 6
1#
1+
#2320
0#
0+
#2330
b1011011000 5
b1011011000 Q
b1011011000 R
b1011101011101011100100 T
b1011101011101011100100 6
0>
1?
b1000000010101110 @
b1011011000000001101101100 &
b1011011000000001101101100 /
b1011011000000001101101100 J
1(
10
1#
1+
#2340
0#
0+
#2350
b11011011000 5
b11011011000 Q
b11011011000 R
b1010 7
b1010 I
0(
00
b110110110001011100 @
0?
1>
b1001 C
b1001 H
b10000001011001000000 T
b10000001011001000000 6
1#
1+
#2360
0#
0+
#2370
b1011011010 5
b1011011010 Q
b1011011010 R
b1011101101011001000000 T
b1011101101011001000000 6
0>
1?
b1000000101100100 @
b1011011010000001101101101 &
b1011011010000001101101101 /
b1011011010000001101101101 J
1(
10
1#
1+
#2380
0#
0+
#2390
b11011011010 5
b11011011010 Q
b11011011010 R
b1011 7
b1011 I
0(
00
b110110111011001000 @
0?
1>
b1010 C
b1010 H
b10000010000110100100 T
b10000010000110100100 6
1#
1+
#2400
0#
0+
#2410
b1011011100 5
b1011011100 Q
b1011011100 R
b1011101111000110100100 T
b1011101111000110100100 6
0>
1?
b1000001000011010 @
b1011011100000001101101110 &
b1011011100000001101101110 /
b1011011100000001101101110 J
1(
10
1#
1+
#2420
0#
0+
#2430
b11011011100 5
b11011011100 Q
b11011011100 R
b1100 7
b1100 I
0(
00
b110111000100110100 @
0?
1>
b1011 C
b1011 H
b10000010110100010000 T
b10000010110100010000 6
1#
1+
#2440
0#
0+
#2450
b1011011110 5
b1011011110 Q
b1011011110 R
b1011110000110100010000 T
b1011110000110100010000 6
0>
1?
b1000001011010001 @
b1011011110000001101101111 &
b1011011110000001101101111 /
b1011011110000001101101111 J
1(
10
1#
1+
#2460
0#
0+
#2470
b11011011110 5
b11011011110 Q
b11011011110 R
b1101 7
b1101 I
0(
00
b110111001110100010 @
0?
1>
b1100 C
b1100 H
b10000011100010000100 T
b10000011100010000100 6
1#
1+
#2480
0#
0+
#2490
b1011100000 5
b1011100000 Q
b1011100000 R
b1011110010100010000100 T
b1011110010100010000100 6
0>
1?
b1000001110001000 @
b1011100000000001101110000 &
b1011100000000001101110000 /
b1011100000000001101110000 J
1(
10
1#
1+
#2500
0#
0+
#2510
b11011100000 5
b11011100000 Q
b11011100000 R
b1110 7
b1110 I
0(
00
b110111011000010000 @
0?
1>
b1101 C
b1101 H
b10000100010000000000 T
b10000100010000000000 6
1#
1+
#2520
0#
0+
#2530
b1011100010 5
b1011100010 Q
b1011100010 R
b1011110100010000000000 T
b1011110100010000000000 6
0>
1?
b1000010001000000 @
b1011100010000001101110001 &
b1011100010000001101110001 /
b1011100010000001101110001 J
1(
10
1#
1+
#2540
0#
0+
#2550
b11011100010 5
b11011100010 Q
b11011100010 R
b1111 7
b1111 I
0(
00
b110111100010000000 @
0?
1>
b1110 C
b1110 H
b10000100111110000100 T
b10000100111110000100 6
1#
1+
#2560
0#
0+
#2570
b1011100100 5
b1011100100 Q
b1011100100 R
b1011110101111110000100 T
b1011110101111110000100 6
0>
1?
b1000010011111000 @
b1011100100000001101110010 &
b1011100100000001101110010 /
b1011100100000001101110010 J
1(
10
1#
1+
#2580
0#
0+
#2590
b11011100100 5
b11011100100 Q
b11011100100 R
b10000 7
b10000 I
0(
00
b110111101011110000 @
0?
1>
b1111 C
b1111 H
b10000101101100010000 T
b10000101101100010000 6
1#
1+
#2600
0#
0+
#2610
b1011100110 5
b1011100110 Q
b1011100110 R
b1011110111101100010000 T
b1011110111101100010000 6
0>
1?
b1000010110110001 @
b1011100110000001101110011 &
b1011100110000001101110011 /
b1011100110000001101110011 J
1(
10
1#
1+
#2620
0#
0+
#2630
b11011100110 5
b11011100110 Q
b11011100110 R
b10001 7
b10001 I
0(
00
b110111110101100010 @
0?
1>
b10000 C
b10000 H
b10000110011010100100 T
b10000110011010100100 6
1#
1+
#2640
0#
0+
#2650
b1011101000 5
b1011101000 Q
b1011101000 R
b1011111001011010100100 T
b1011111001011010100100 6
0>
1?
b1000011001101010 @
b1011101000000001101110100 &
b1011101000000001101110100 /
b1011101000000001101110100 J
1(
10
1#
1+
#2660
0#
0+
#2670
b11011101000 5
b11011101000 Q
b11011101000 R
b10010 7
b10010 I
0(
00
b110111111111010100 @
0?
1>
b10001 C
b10001 H
b10000111001001000000 T
b10000111001001000000 6
1#
1+
#2680
0#
0+
#2690
b1011101010 5
b1011101010 Q
b1011101010 R
b1011111011001001000000 T
b1011111011001001000000 6
0>
1?
b1000011100100100 @
b1011101010000001101110101 &
b1011101010000001101110101 /
b1011101010000001101110101 J
1(
10
1#
1+
#2700
0#
0+
#2710
b11011101010 5
b11011101010 Q
b11011101010 R
b10011 7
b10011 I
0(
00
b111000001001001000 @
0?
1>
b10010 C
b10010 H
b10000111110111100100 T
b10000111110111100100 6
1#
1+
#2720
0#
0+
#2730
b1011101100 5
b1011101100 Q
b1011101100 R
b1011111100110111100100 T
b1011111100110111100100 6
0>
1?
b1000011111011110 @
b1011101100000001101110110 &
b1011101100000001101110110 /
b1011101100000001101110110 J
1(
10
1#
1+
#2740
0#
0+
#2750
b11011101100 5
b11011101100 Q
b11011101100 R
b10100 7
b10100 I
0(
00
b111000010010111100 @
0?
1>
b10011 C
b10011 H
b10001000100110010000 T
b10001000100110010000 6
1#
1+
#2760
0#
0+
#2770
b1011101110 5
b1011101110 Q
b1011101110 R
b1011111110100110010000 T
b1011111110100110010000 6
0>
1?
b1000100010011001 @
b1011101110000001101110111 &
b1011101110000001101110111 /
b1011101110000001101110111 J
1(
10
1#
1+
#2780
0#
0+
#2790
b11011101110 5
b11011101110 Q
b11011101110 R
b10101 7
b10101 I
0(
00
b111000011100110010 @
0?
1>
b10100 C
b10100 H
b10001001010101000100 T
b10001001010101000100 6
1#
1+
#2800
0#
0+
#2810
b1011110000 5
b1011110000 Q
b1011110000 R
b1100000000010101000100 T
b1100000000010101000100 6
0>
1?
b1000100101010100 @
b1011110000000001101111000 &
b1011110000000001101111000 /
b1011110000000001101111000 J
1(
10
1#
1+
#2820
0#
0+
#2830
b11011110000 5
b11011110000 Q
b11011110000 R
b10110 7
b10110 I
0(
00
b111000100110101000 @
0?
1>
b10101 C
b10101 H
b10001010000100000000 T
b10001010000100000000 6
1#
1+
#2840
0#
0+
#2850
b1011110010 5
b1011110010 Q
b1011110010 R
b1100000010000100000000 T
b1100000010000100000000 6
0>
1?
b1000101000010000 @
b1011110010000001101111001 &
b1011110010000001101111001 /
b1011110010000001101111001 J
1(
10
1#
1+
#2860
0#
0+
